#define SIZE 10485760
#define NBR 10000

int main() {
  int * a = new int[SIZE];
  int * index = new int[NBR];
  srand(time(NULL));

  int c = 0, d = 0;
  for(int k = 0; k < NBR; ++k)
    index[k] = rand() % SIZE;

  for(int k = 0; k < SIZE; ++k)
    a[k] = k;

  for(int k = 0; k < 1000; ++k) {
    c = 0;
    double dummy = 0.;
    for(int n = 0; n < NBR; ++n) {
      c += a[index[n]];
#ifdef IMPROVE_CPI
            if(n & 0x1)
                dummy += sqrt(n);
#endif
        }
        d += c + dummy;
    }

    printf("%d\n", d);
    return 0;
}
