#define SIZE 10485760
#define NBR 10000

int main() {
  // array of data
  int* a = new int[SIZE];
  for(int i = 0; i < SIZE; i++)
    a[i] = i;

  // array of random index
  int* index = new int[NBR];
  for(int k = 0; k < NBR; ++k)
    index[k] = rand() % SIZE;

  int d = 0;
  for(int k = 0; k < 1000; ++k) {
    int c = 0;

    // random fashion access
    for(int n = 0; n < NBR; ++n)
      c += a[index[n]];

    d += c;
  }

  printf("%d\n", d);
  return 0;
}
