\relax 
\providecommand\hyper@newdestlabel[2]{}
\@writefile{toc}{\beamer@subsectionintoc {3}{1}{Time}{34}{0}{3}}
\@writefile{nav}{\headcommand {\beamer@subsectionentry {0}{3}{1}{34}{Time}}\headcommand {\beamer@subsectionpages {33}{33}}}
\@writefile{nav}{\headcommand {\slideentry {3}{1}{1}{34/34}{Time}{0}}}
\@writefile{nav}{\headcommand {\beamer@framepages {34}{34}}}
\@writefile{nav}{\headcommand {\slideentry {3}{1}{2}{35/35}{Time}{0}}}
\@writefile{nav}{\headcommand {\beamer@framepages {35}{35}}}
\@writefile{nav}{\headcommand {\slideentry {3}{1}{3}{36/36}{Time}{0}}}
\@writefile{nav}{\headcommand {\beamer@framepages {36}{36}}}
\@writefile{nav}{\headcommand {\slideentry {3}{1}{4}{37/37}{Time}{0}}}
\@writefile{nav}{\headcommand {\beamer@framepages {37}{37}}}
\@writefile{nav}{\headcommand {\slideentry {3}{1}{5}{38/38}{Time}{0}}}
\@writefile{nav}{\headcommand {\beamer@framepages {38}{38}}}
\@writefile{nav}{\headcommand {\slideentry {3}{1}{6}{39/39}{Time}{0}}}
\@writefile{nav}{\headcommand {\beamer@framepages {39}{39}}}
\@writefile{nav}{\headcommand {\slideentry {3}{1}{7}{40/40}{Time}{0}}}
\@writefile{nav}{\headcommand {\beamer@framepages {40}{40}}}
\@setckpt{metric_time}{
\setcounter{page}{41}
\setcounter{equation}{0}
\setcounter{enumi}{0}
\setcounter{enumii}{0}
\setcounter{enumiii}{0}
\setcounter{enumiv}{0}
\setcounter{footnote}{0}
\setcounter{mpfootnote}{0}
\setcounter{beamerpauses}{1}
\setcounter{bookmark@seq@number}{10}
\setcounter{lecture}{0}
\setcounter{part}{0}
\setcounter{section}{3}
\setcounter{subsection}{1}
\setcounter{subsubsection}{0}
\setcounter{subsectionslide}{7}
\setcounter{framenumber}{40}
\setcounter{figure}{1}
\setcounter{table}{0}
\setcounter{parentequation}{0}
\setcounter{theorem}{0}
\setcounter{FancyVerbLine}{2}
\setcounter{linenumber}{1}
\setcounter{LN@truepage}{40}
\setcounter{FV@TrueTabGroupLevel}{0}
\setcounter{FV@TrueTabCounter}{0}
\setcounter{FV@HighlightLinesStart}{0}
\setcounter{FV@HighlightLinesStop}{0}
\setcounter{FancyVerbLineBreakLast}{0}
\setcounter{float@type}{8}
\setcounter{minted@FancyVerbLineTemp}{26}
\setcounter{minted@pygmentizecounter}{26}
\setcounter{listing}{0}
\setcounter{section@level}{0}
}
