\relax 
\providecommand\hyper@newdestlabel[2]{}
\@writefile{toc}{\beamer@subsectionintoc {3}{2}{Cycles per instruction (CPI)}{43}{0}{3}}
\@writefile{nav}{\headcommand {\beamer@subsectionpages {32}{42}}}
\@writefile{nav}{\headcommand {\beamer@subsectionentry {0}{3}{2}{43}{Cycles per instruction (CPI)}}}
\@writefile{nav}{\headcommand {\slideentry {3}{2}{1}{43/43}{Cycles per instruction (CPI)}{0}}}
\@writefile{nav}{\headcommand {\beamer@framepages {43}{43}}}
\@writefile{nav}{\headcommand {\slideentry {3}{2}{2}{44/44}{Cycles per instruction (CPI)}{0}}}
\@writefile{nav}{\headcommand {\beamer@framepages {44}{44}}}
\@writefile{nav}{\headcommand {\slideentry {3}{2}{3}{45/45}{Cycles per instruction (CPI)}{0}}}
\@writefile{nav}{\headcommand {\beamer@framepages {45}{45}}}
\@writefile{nav}{\headcommand {\slideentry {3}{2}{4}{46/46}{Cycles per instruction (CPI)}{0}}}
\@writefile{nav}{\headcommand {\beamer@framepages {46}{46}}}
\@writefile{nav}{\headcommand {\slideentry {3}{2}{5}{47/47}{Cycles per instruction (CPI)}{0}}}
\@writefile{nav}{\headcommand {\beamer@framepages {47}{47}}}
\@writefile{nav}{\headcommand {\slideentry {3}{2}{6}{48/48}{Cycles per instruction (CPI)}{0}}}
\@writefile{nav}{\headcommand {\beamer@framepages {48}{48}}}
\@writefile{nav}{\headcommand {\slideentry {3}{2}{7}{49/49}{Cycles per instruction (CPI)}{0}}}
\@writefile{nav}{\headcommand {\beamer@framepages {49}{49}}}
\@setckpt{metric_cpi}{
\setcounter{page}{50}
\setcounter{equation}{0}
\setcounter{enumi}{0}
\setcounter{enumii}{0}
\setcounter{enumiii}{0}
\setcounter{enumiv}{0}
\setcounter{footnote}{0}
\setcounter{mpfootnote}{0}
\setcounter{beamerpauses}{1}
\setcounter{bookmark@seq@number}{11}
\setcounter{lecture}{0}
\setcounter{part}{0}
\setcounter{section}{3}
\setcounter{subsection}{2}
\setcounter{subsubsection}{0}
\setcounter{subsectionslide}{7}
\setcounter{framenumber}{49}
\setcounter{figure}{7}
\setcounter{table}{0}
\setcounter{parentequation}{0}
\setcounter{theorem}{0}
\setcounter{FancyVerbLine}{7}
\setcounter{linenumber}{1}
\setcounter{LN@truepage}{49}
\setcounter{FV@TrueTabGroupLevel}{0}
\setcounter{FV@TrueTabCounter}{0}
\setcounter{FV@HighlightLinesStart}{0}
\setcounter{FV@HighlightLinesStop}{0}
\setcounter{FancyVerbLineBreakLast}{0}
\setcounter{float@type}{8}
\setcounter{minted@FancyVerbLineTemp}{5}
\setcounter{minted@pygmentizecounter}{40}
\setcounter{listing}{0}
\setcounter{section@level}{0}
}
