\relax 
\providecommand\hyper@newdestlabel[2]{}
\@writefile{toc}{\beamer@subsectionintoc {3}{1}{Cache miss/hit}{32}{0}{3}}
\@writefile{nav}{\headcommand {\beamer@subsectionpages {31}{31}}}
\@writefile{nav}{\headcommand {\beamer@subsectionentry {0}{3}{1}{32}{Cache miss/hit}}}
\@writefile{nav}{\headcommand {\slideentry {3}{1}{1}{32/32}{Cache miss/hit}{0}}}
\@writefile{nav}{\headcommand {\beamer@framepages {32}{32}}}
\@writefile{nav}{\headcommand {\slideentry {3}{1}{2}{33/33}{Cache miss/hit}{0}}}
\@writefile{nav}{\headcommand {\beamer@framepages {33}{33}}}
\@writefile{nav}{\headcommand {\slideentry {3}{1}{3}{34/34}{Cache miss/hit}{0}}}
\@writefile{nav}{\headcommand {\beamer@framepages {34}{34}}}
\@writefile{nav}{\headcommand {\slideentry {3}{1}{4}{35/35}{Cache miss/hit}{0}}}
\@writefile{nav}{\headcommand {\beamer@framepages {35}{35}}}
\@writefile{nav}{\headcommand {\slideentry {3}{1}{5}{36/36}{Cache miss/hit}{0}}}
\@writefile{nav}{\headcommand {\beamer@framepages {36}{36}}}
\@writefile{nav}{\headcommand {\slideentry {3}{1}{6}{37/37}{Cache miss/hit}{0}}}
\@writefile{nav}{\headcommand {\beamer@framepages {37}{37}}}
\@writefile{nav}{\headcommand {\slideentry {3}{1}{7}{38/38}{Cache miss/hit}{0}}}
\@writefile{nav}{\headcommand {\beamer@framepages {38}{38}}}
\@writefile{nav}{\headcommand {\slideentry {3}{1}{8}{39/39}{Cache miss/hit}{0}}}
\@writefile{nav}{\headcommand {\beamer@framepages {39}{39}}}
\@writefile{nav}{\headcommand {\slideentry {3}{1}{9}{40/40}{Cache miss/hit}{0}}}
\@writefile{nav}{\headcommand {\beamer@framepages {40}{40}}}
\@writefile{nav}{\headcommand {\slideentry {3}{1}{10}{41/41}{Cache miss/hit}{0}}}
\@writefile{nav}{\headcommand {\beamer@framepages {41}{41}}}
\@writefile{nav}{\headcommand {\slideentry {3}{1}{11}{42/42}{Cache miss/hit}{0}}}
\@writefile{nav}{\headcommand {\beamer@framepages {42}{42}}}
\@setckpt{metric_cache}{
\setcounter{page}{43}
\setcounter{equation}{0}
\setcounter{enumi}{0}
\setcounter{enumii}{0}
\setcounter{enumiii}{0}
\setcounter{enumiv}{0}
\setcounter{footnote}{0}
\setcounter{mpfootnote}{0}
\setcounter{beamerpauses}{1}
\setcounter{bookmark@seq@number}{10}
\setcounter{lecture}{0}
\setcounter{part}{0}
\setcounter{section}{3}
\setcounter{subsection}{1}
\setcounter{subsubsection}{0}
\setcounter{subsectionslide}{11}
\setcounter{framenumber}{42}
\setcounter{figure}{3}
\setcounter{table}{0}
\setcounter{parentequation}{0}
\setcounter{theorem}{0}
\setcounter{FancyVerbLine}{10}
\setcounter{linenumber}{1}
\setcounter{LN@truepage}{42}
\setcounter{FV@TrueTabGroupLevel}{0}
\setcounter{FV@TrueTabCounter}{0}
\setcounter{FV@HighlightLinesStart}{0}
\setcounter{FV@HighlightLinesStop}{0}
\setcounter{FancyVerbLineBreakLast}{0}
\setcounter{float@type}{8}
\setcounter{minted@FancyVerbLineTemp}{10}
\setcounter{minted@pygmentizecounter}{33}
\setcounter{listing}{0}
\setcounter{section@level}{0}
}
