\relax 
\providecommand\hyper@newdestlabel[2]{}
\@writefile{toc}{\beamer@sectionintoc {3}{Performance Metrics}{27}{0}{3}}
\@writefile{nav}{\headcommand {\sectionentry {3}{Performance Metrics}{27}{Performance Metrics}{0}}}
\@writefile{nav}{\headcommand {\beamer@sectionpages {18}{26}}}
\@writefile{nav}{\headcommand {\beamer@subsectionpages {18}{26}}}
\@writefile{nav}{\headcommand {\slideentry {3}{0}{1}{27/27}{}{0}}}
\@writefile{nav}{\headcommand {\beamer@framepages {27}{27}}}
