%!PS-Adobe-2.0 EPSF-2.0
%%Title: /home/hadji/linear-access.dia
%%Creator: Dia v0.97+git
%%CreationDate: Wed May 17 16:18:58 2017
%%For: hadji
%%Orientation: Portrait
%%Magnification: 1.0000
%%BoundingBox: 0 0 494 138
%%BeginSetup
%%EndSetup
%%EndComments
%%BeginProlog
[ /.notdef /.notdef /.notdef /.notdef /.notdef /.notdef /.notdef /.notdef /.notdef /.notdef
/.notdef /.notdef /.notdef /.notdef /.notdef /.notdef /.notdef /.notdef /.notdef /.notdef
/.notdef /.notdef /.notdef /.notdef /.notdef /.notdef /.notdef /.notdef /.notdef /.notdef
/.notdef /.notdef /space /exclam /quotedbl /numbersign /dollar /percent /ampersand /quoteright
/parenleft /parenright /asterisk /plus /comma /hyphen /period /slash /zero /one
/two /three /four /five /six /seven /eight /nine /colon /semicolon
/less /equal /greater /question /at /A /B /C /D /E
/F /G /H /I /J /K /L /M /N /O
/P /Q /R /S /T /U /V /W /X /Y
/Z /bracketleft /backslash /bracketright /asciicircum /underscore /quoteleft /a /b /c
/d /e /f /g /h /i /j /k /l /m
/n /o /p /q /r /s /t /u /v /w
/x /y /z /braceleft /bar /braceright /asciitilde /.notdef /.notdef /.notdef
/.notdef /.notdef /.notdef /.notdef /.notdef /.notdef /.notdef /.notdef /.notdef /.notdef
/.notdef /.notdef /.notdef /.notdef /.notdef /.notdef /.notdef /.notdef /.notdef /.notdef
/.notdef /.notdef /.notdef /.notdef /.notdef /.notdef /.notdef /.notdef /.notdef /.notdef
/space /exclamdown /cent /sterling /currency /yen /brokenbar /section /dieresis /copyright
/ordfeminine /guillemotleft /logicalnot /hyphen /registered /macron /degree /plusminus /twosuperior /threesuperior
/acute /mu /paragraph /periodcentered /cedilla /onesuperior /ordmasculine /guillemotright /onequarter /onehalf
/threequarters /questiondown /Agrave /Aacute /Acircumflex /Atilde /Adieresis /Aring /AE /Ccedilla
/Egrave /Eacute /Ecircumflex /Edieresis /Igrave /Iacute /Icircumflex /Idieresis /Eth /Ntilde
/Ograve /Oacute /Ocircumflex /Otilde /Odieresis /multiply /Oslash /Ugrave /Uacute /Ucircumflex
/Udieresis /Yacute /Thorn /germandbls /agrave /aacute /acircumflex /atilde /adieresis /aring
/ae /ccedilla /egrave /eacute /ecircumflex /edieresis /igrave /iacute /icircumflex /idieresis
/eth /ntilde /ograve /oacute /ocircumflex /otilde /odieresis /divide /oslash /ugrave
/uacute /ucircumflex /udieresis /yacute /thorn /ydieresis] /isolatin1encoding exch def
/cp {closepath} bind def
/c {curveto} bind def
/f {fill} bind def
/a {arc} bind def
/ef {eofill} bind def
/ex {exch} bind def
/gr {grestore} bind def
/gs {gsave} bind def
/sa {save} bind def
/rs {restore} bind def
/l {lineto} bind def
/m {moveto} bind def
/rm {rmoveto} bind def
/n {newpath} bind def
/s {stroke} bind def
/sh {show} bind def
/slc {setlinecap} bind def
/slj {setlinejoin} bind def
/slw {setlinewidth} bind def
/srgb {setrgbcolor} bind def
/rot {rotate} bind def
/sc {scale} bind def
/sd {setdash} bind def
/ff {findfont} bind def
/sf {setfont} bind def
/scf {scalefont} bind def
/sw {stringwidth pop} bind def
/tr {translate} bind def

/ellipsedict 8 dict def
ellipsedict /mtrx matrix put
/ellipse
{ ellipsedict begin
   /endangle exch def
   /startangle exch def
   /yrad exch def
   /xrad exch def
   /y exch def
   /x exch def   /savematrix mtrx currentmatrix def
   x y tr xrad yrad sc
   0 0 1 startangle endangle arc
   savematrix setmatrix
   end
} def

/mergeprocs {
dup length
3 -1 roll
dup
length
dup
5 1 roll
3 -1 roll
add
array cvx
dup
3 -1 roll
0 exch
putinterval
dup
4 2 roll
putinterval
} bind def
/dpi_x 300 def
/dpi_y 300 def
/conicto {
    /to_y exch def
    /to_x exch def
    /conic_cntrl_y exch def
    /conic_cntrl_x exch def
    currentpoint
    /p0_y exch def
    /p0_x exch def
    /p1_x p0_x conic_cntrl_x p0_x sub 2 3 div mul add def
    /p1_y p0_y conic_cntrl_y p0_y sub 2 3 div mul add def
    /p2_x p1_x to_x p0_x sub 1 3 div mul add def
    /p2_y p1_y to_y p0_y sub 1 3 div mul add def
    p1_x p1_y p2_x p2_y to_x to_y curveto
} bind def
/start_ol { gsave 1.1 dpi_x div dup scale} bind def
/end_ol { closepath fill grestore } bind def
28.346000 -28.346000 scale
-9.600000 -8.025000 translate
%%EndProlog


0.050000 slw
[] 0 sd
0 slj
0 slc
1.000000 1.000000 1.000000 srgb
n 11.000000 4.000000 m 27.000000 4.000000 l 27.000000 5.000000 l 11.000000 5.000000 l ef
0.000000 0.000000 0.000000 srgb
n 11.000000 4.000000 m 27.000000 4.000000 l 27.000000 5.000000 l 11.000000 5.000000 l cp s
0.050000 slw
[] 0 sd
0 slc
n 14.000000 4.000000 m 14.000000 5.000000 l s
0.050000 slw
[] 0 sd
0 slc
n 15.000000 4.000000 m 15.000000 5.000000 l s
0.050000 slw
[] 0 sd
0 slc
n 16.000000 4.000000 m 16.000000 5.000000 l s
0.050000 slw
[] 0 sd
0 slc
n 17.000000 4.000000 m 17.000000 5.000000 l s
0.050000 slw
[] 0 sd
0 slc
n 12.000000 4.000000 m 12.000000 5.000000 l s
0.050000 slw
[] 0 sd
0 slc
n 13.000000 4.000000 m 13.000000 5.000000 l s
0.050000 slw
[] 0 sd
0 slc
n 18.000000 4.000000 m 18.000000 5.000000 l s
0.050000 slw
[] 0 sd
0 slc
n 19.000000 4.000000 m 19.000000 5.000000 l s
0.050000 slw
[] 0 sd
0 slc
n 20.000000 4.000000 m 20.000000 5.000000 l s
0.050000 slw
[] 0 sd
0 slc
n 21.000000 4.000000 m 21.000000 5.000000 l s
0.050000 slw
[] 0 sd
0 slc
n 24.000000 4.000000 m 24.000000 5.000000 l s
0.050000 slw
[] 0 sd
0 slc
n 25.000000 4.000000 m 25.000000 5.000000 l s
0.050000 slw
[] 0 sd
0 slc
n 26.000000 4.000000 m 26.000000 5.000000 l s
gsave 22.140000 4.500000 translate 0.035278 -0.035278 scale
start_ol
1020 318 moveto
1088 248 1088 158 conicto
1088 68 1022 2 conicto
956 -64 862 -64 conicto
768 -64 704 0 conicto
640 65 640 158 conicto
640 252 708 318 conicto
776 384 862 384 conicto
949 384 1020 318 conicto
end_ol grestore 
gsave 22.379770 4.500000 translate 0.035278 -0.035278 scale
start_ol
1020 318 moveto
1088 248 1088 158 conicto
1088 68 1022 2 conicto
956 -64 862 -64 conicto
768 -64 704 0 conicto
640 65 640 158 conicto
640 252 708 318 conicto
776 384 862 384 conicto
949 384 1020 318 conicto
end_ol grestore 
gsave 22.619541 4.500000 translate 0.035278 -0.035278 scale
start_ol
1020 318 moveto
1088 248 1088 158 conicto
1088 68 1022 2 conicto
956 -64 862 -64 conicto
768 -64 704 0 conicto
640 65 640 158 conicto
640 252 708 318 conicto
776 384 862 384 conicto
949 384 1020 318 conicto
end_ol grestore 
gsave 10.600000 4.600000 translate 0.035278 -0.035278 scale
start_ol
320 1505 moveto
547 1728 927 1728 conicto
1239 1728 1419 1570 conicto
1600 1413 1600 1047 conicto
1600 0 lineto
1348 0 lineto
1348 159 lineto
1083 -64 752 -64 conicto
621 -64 517 -24 conicto
414 16 341 82 conicto
268 148 230 232 conicto
192 316 192 400 conicto
192 653 408 799 conicto
624 945 1031 960 conicto
1344 960 lineto
1344 1023 lineto
1344 1273 1238 1372 conicto
1132 1472 908 1472 conicto
633 1472 450 1344 conicto
320 1505 lineto
1355 701 moveto
1293 701 lineto
1242 701 1196 702 conicto
1150 704 1106 704 conicto
905 704 777 681 conicto
649 659 576 620 conicto
503 581 475 531 conicto
448 482 448 426 conicto
448 330 550 261 conicto
653 192 803 192 conicto
912 192 1000 220 conicto
1088 249 1154 289 conicto
1220 330 1260 373 conicto
1300 417 1318 449 conicto
1355 509 1355 611 conicto
1355 701 lineto
end_ol grestore 
gsave 11.200000 3.600000 translate 0.035278 -0.035278 scale
start_ol
1088 2304 moveto
1088 0 lineto
832 0 lineto
832 1990 lineto
378 1856 lineto
320 1998 lineto
910 2304 lineto
1088 2304 lineto
end_ol grestore 
gsave 11.439770 3.600000 translate 0.035278 -0.035278 scale
start_ol
1428 1996 moveto
1535 1851 1599 1617 conicto
1664 1384 1664 1094 conicto
1664 801 1599 584 conicto
1535 367 1430 222 conicto
1325 77 1192 6 conicto
1060 -64 924 -64 conicto
784 -64 652 21 conicto
520 107 416 261 conicto
313 415 252 632 conicto
192 849 192 1113 conicto
192 1376 252 1595 conicto
313 1814 416 1972 conicto
520 2130 652 2217 conicto
784 2304 924 2304 conicto
1211 2304 1428 1996 conicto
1280 1755 moveto
1209 1900 1116 1974 conicto
1024 2048 928 2048 conicto
839 2048 752 1983 conicto
665 1918 597 1802 conicto
530 1686 489 1519 conicto
448 1353 448 1154 conicto
448 930 498 727 conicto
1280 1755 lineto
1362 1513 moveto
580 500 lineto
665 337 759 264 conicto
854 192 946 192 conicto
1042 192 1125 251 conicto
1209 311 1271 423 conicto
1333 536 1370 697 conicto
1408 858 1408 1061 conicto
1408 1187 1397 1299 conicto
1387 1412 1362 1513 conicto
end_ol grestore 
gsave 11.679541 3.600000 translate 0.035278 -0.035278 scale
start_ol
1137 2304 moveto
1344 2304 lineto
1344 896 lineto
1636 896 lineto
1636 640 lineto
1344 640 lineto
1344 0 lineto
1088 0 lineto
1088 644 lineto
192 644 lineto
192 855 lineto
1137 2304 lineto
1092 1899 moveto
444 896 lineto
1092 896 lineto
1092 1899 lineto
end_ol grestore 
gsave 11.919311 3.600000 translate 0.035278 -0.035278 scale
start_ol
1536 1738 moveto
1536 1566 1436 1411 conicto
1337 1256 1171 1164 conicto
1364 1074 1482 908 conicto
1600 742 1600 548 conicto
1600 419 1544 306 conicto
1489 194 1395 111 conicto
1301 29 1171 -17 conicto
1042 -64 894 -64 conicto
746 -64 617 -17 conicto
488 29 393 109 conicto
299 190 245 298 conicto
192 407 192 532 conicto
192 725 322 893 conicto
452 1061 670 1154 conicto
512 1238 416 1389 conicto
320 1541 320 1714 conicto
320 1836 368 1943 conicto
416 2051 500 2131 conicto
585 2212 695 2258 conicto
806 2304 935 2304 conicto
1064 2304 1174 2260 conicto
1285 2216 1364 2137 conicto
1444 2059 1490 1956 conicto
1536 1853 1536 1738 conicto
843 1024 moveto
674 961 561 836 conicto
448 711 448 561 conicto
448 485 484 418 conicto
520 352 582 302 conicto
644 252 725 222 conicto
806 192 900 192 conicto
994 192 1075 220 conicto
1156 249 1216 297 conicto
1276 345 1310 410 conicto
1344 475 1344 551 conicto
1344 705 1208 833 conicto
1073 961 843 1024 conicto
637 1535 moveto
681 1463 751 1411 conicto
821 1359 912 1312 conicto
973 1280 lineto
1107 1352 1193 1474 conicto
1280 1596 1280 1721 conicto
1280 1786 1253 1843 conicto
1226 1901 1177 1947 conicto
1128 1994 1063 2021 conicto
998 2048 923 2048 conicto
847 2048 783 2021 conicto
720 1994 673 1951 conicto
627 1908 601 1850 conicto
576 1793 576 1732 conicto
576 1625 637 1535 conicto
end_ol grestore 
gsave 12.159082 3.600000 translate 0.035278 -0.035278 scale
start_ol
411 2304 moveto
1600 2304 lineto
1600 2048 lineto
625 2048 lineto
589 1383 lineto
771 1472 967 1472 conicto
1115 1472 1243 1418 conicto
1371 1365 1465 1263 conicto
1560 1162 1612 1020 conicto
1664 878 1664 700 conicto
1664 523 1608 381 conicto
1553 239 1455 139 conicto
1357 39 1226 -12 conicto
1095 -64 940 -64 conicto
729 -64 550 26 conicto
371 116 256 282 conicto
482 448 lineto
501 439 502 410 conicto
504 382 508 375 conicto
523 353 560 321 conicto
598 290 656 261 conicto
714 233 790 212 conicto
867 192 956 192 conicto
1046 192 1128 228 conicto
1210 264 1271 329 conicto
1333 395 1370 490 conicto
1408 585 1408 706 conicto
1408 826 1371 921 conicto
1334 1016 1269 1081 conicto
1204 1147 1118 1181 conicto
1033 1216 932 1216 conicto
813 1216 698 1165 conicto
583 1115 498 1024 conicto
334 1093 lineto
411 2304 lineto
end_ol grestore 
gsave 12.398852 3.600000 translate 0.035278 -0.035278 scale
start_ol
1600 2153 moveto
1372 1622 1174 1087 conicto
977 553 810 0 conicto
522 0 lineto
697 526 886 1033 conicto
1076 1541 1288 2048 conicto
320 2048 lineto
320 2304 lineto
1600 2304 lineto
1600 2153 lineto
end_ol grestore 
gsave 12.638622 3.600000 translate 0.035278 -0.035278 scale
start_ol
1045 2304 moveto
1324 2304 1536 2105 conicto
1357 1920 lineto
1325 1941 1314 1966 conicto
1303 1992 1264 2003 conicto
1210 2029 1154 2038 conicto
1099 2048 1049 2048 conicto
977 2048 882 2014 conicto
788 1981 705 1888 conicto
623 1796 564 1627 conicto
505 1458 501 1192 conicto
577 1323 706 1397 conicto
835 1472 980 1472 conicto
1107 1472 1219 1418 conicto
1332 1364 1417 1263 conicto
1502 1163 1551 1023 conicto
1600 883 1600 711 conicto
1600 540 1549 396 conicto
1499 253 1412 150 conicto
1325 48 1208 -8 conicto
1091 -64 957 -64 conicto
787 -64 657 12 conicto
527 88 438 228 conicto
350 369 303 570 conicto
256 772 256 1024 conicto
256 1335 311 1573 conicto
367 1812 471 1974 conicto
575 2137 720 2220 conicto
866 2304 1045 2304 conicto
516 918 moveto
512 897 512 876 conicto
512 855 512 833 conicto
512 695 546 578 conicto
580 461 641 376 conicto
702 291 784 241 conicto
867 192 960 192 conicto
1114 192 1229 323 conicto
1344 454 1344 706 conicto
1344 840 1308 936 conicto
1272 1032 1216 1094 conicto
1161 1156 1091 1186 conicto
1021 1216 953 1216 conicto
824 1216 705 1129 conicto
587 1042 516 918 conicto
end_ol grestore 
gsave 12.878393 3.600000 translate 0.035278 -0.035278 scale
start_ol
1428 1996 moveto
1535 1851 1599 1617 conicto
1664 1384 1664 1094 conicto
1664 801 1599 584 conicto
1535 367 1430 222 conicto
1325 77 1192 6 conicto
1060 -64 924 -64 conicto
784 -64 652 21 conicto
520 107 416 261 conicto
313 415 252 632 conicto
192 849 192 1113 conicto
192 1376 252 1595 conicto
313 1814 416 1972 conicto
520 2130 652 2217 conicto
784 2304 924 2304 conicto
1211 2304 1428 1996 conicto
1280 1755 moveto
1209 1900 1116 1974 conicto
1024 2048 928 2048 conicto
839 2048 752 1983 conicto
665 1918 597 1802 conicto
530 1686 489 1519 conicto
448 1353 448 1154 conicto
448 930 498 727 conicto
1280 1755 lineto
1362 1513 moveto
580 500 lineto
665 337 759 264 conicto
854 192 946 192 conicto
1042 192 1125 251 conicto
1209 311 1271 423 conicto
1333 536 1370 697 conicto
1408 858 1408 1061 conicto
1408 1187 1397 1299 conicto
1387 1412 1362 1513 conicto
end_ol grestore 
gsave 13.118163 3.600000 translate 0.035278 -0.035278 scale
start_ol
end_ol grestore 
gsave 13.357933 3.600000 translate 0.035278 -0.035278 scale
start_ol
384 1664 moveto
1024 1664 lineto
1024 256 lineto
1408 256 lineto
1408 0 lineto
320 0 lineto
320 256 lineto
768 256 lineto
768 1408 lineto
384 1408 lineto
384 1664 lineto
760 2376 moveto
816 2432 894 2432 conicto
972 2432 1030 2374 conicto
1088 2316 1088 2238 conicto
1088 2160 1030 2104 conicto
972 2048 894 2048 conicto
816 2048 760 2104 conicto
704 2160 704 2238 conicto
704 2320 760 2376 conicto
end_ol grestore 
gsave 13.597704 3.600000 translate 0.035278 -0.035278 scale
start_ol
256 0 moveto
256 1664 lineto
512 1664 lineto
512 1388 lineto
610 1543 761 1635 conicto
913 1728 1071 1728 conicto
1184 1728 1281 1689 conicto
1379 1650 1450 1565 conicto
1521 1481 1560 1348 conicto
1600 1215 1600 1023 conicto
1600 0 lineto
1344 0 lineto
1344 1000 lineto
1344 1261 1251 1366 conicto
1158 1472 1025 1472 conicto
937 1472 846 1435 conicto
755 1399 681 1332 conicto
607 1265 559 1170 conicto
512 1076 512 956 conicto
512 0 lineto
256 0 lineto
end_ol grestore 
gsave 13.837474 3.600000 translate 0.035278 -0.035278 scale
start_ol
653 2109 moveto
931 2157 lineto
931 2124 922 2098 conicto
913 2073 909 2058 conicto
865 1664 lineto
1408 1664 lineto
1408 1408 lineto
865 1408 lineto
832 1090 832 811 conicto
832 639 839 521 conicto
847 403 879 335 conicto
911 267 971 229 conicto
1032 192 1133 192 conicto
1306 192 1517 320 conicto
1600 117 lineto
1345 -64 1075 -64 conicto
809 -64 687 93 conicto
565 251 576 605 conicto
576 735 583 937 conicto
591 1140 613 1408 conicto
192 1408 lineto
192 1664 lineto
624 1664 lineto
653 2109 lineto
end_ol grestore 
gsave 14.077245 3.600000 translate 0.035278 -0.035278 scale
start_ol
end_ol grestore 
gsave 14.317015 3.600000 translate 0.035278 -0.035278 scale
start_ol
192 1664 moveto
1664 1664 lineto
1664 1408 lineto
192 1408 lineto
192 1664 lineto
192 896 moveto
1664 896 lineto
1664 640 lineto
192 640 lineto
192 896 lineto
end_ol grestore 
gsave 14.556785 3.600000 translate 0.035278 -0.035278 scale
start_ol
end_ol grestore 
gsave 14.796556 3.600000 translate 0.035278 -0.035278 scale
start_ol
1137 2304 moveto
1344 2304 lineto
1344 896 lineto
1636 896 lineto
1636 640 lineto
1344 640 lineto
1344 0 lineto
1088 0 lineto
1088 644 lineto
192 644 lineto
192 855 lineto
1137 2304 lineto
1092 1899 moveto
444 896 lineto
1092 896 lineto
1092 1899 lineto
end_ol grestore 
gsave 15.036326 3.600000 translate 0.035278 -0.035278 scale
start_ol
1428 1996 moveto
1535 1851 1599 1617 conicto
1664 1384 1664 1094 conicto
1664 801 1599 584 conicto
1535 367 1430 222 conicto
1325 77 1192 6 conicto
1060 -64 924 -64 conicto
784 -64 652 21 conicto
520 107 416 261 conicto
313 415 252 632 conicto
192 849 192 1113 conicto
192 1376 252 1595 conicto
313 1814 416 1972 conicto
520 2130 652 2217 conicto
784 2304 924 2304 conicto
1211 2304 1428 1996 conicto
1280 1755 moveto
1209 1900 1116 1974 conicto
1024 2048 928 2048 conicto
839 2048 752 1983 conicto
665 1918 597 1802 conicto
530 1686 489 1519 conicto
448 1353 448 1154 conicto
448 930 498 727 conicto
1280 1755 lineto
1362 1513 moveto
580 500 lineto
665 337 759 264 conicto
854 192 946 192 conicto
1042 192 1125 251 conicto
1209 311 1271 423 conicto
1333 536 1370 697 conicto
1408 858 1408 1061 conicto
1408 1187 1397 1299 conicto
1387 1412 1362 1513 conicto
end_ol grestore 
gsave 15.276096 3.600000 translate 0.035278 -0.035278 scale
start_ol
128 2304 moveto
348 2304 lineto
894 1193 lineto
1455 2308 lineto
1664 2308 lineto
1664 0 lineto
1408 0 lineto
1408 1746 lineto
927 832 lineto
828 832 lineto
384 1735 lineto
384 0 lineto
128 0 lineto
128 2304 lineto
end_ol grestore 
gsave 15.515867 3.600000 translate 0.035278 -0.035278 scale
start_ol
192 2304 moveto
841 2304 lineto
1039 2304 1184 2264 conicto
1329 2224 1417 2144 conicto
1505 2065 1552 1961 conicto
1600 1857 1600 1732 conicto
1600 1565 1512 1417 conicto
1425 1270 1264 1209 conicto
1353 1176 1426 1116 conicto
1500 1057 1554 981 conicto
1609 905 1636 816 conicto
1664 728 1664 633 conicto
1664 347 1462 173 conicto
1261 0 825 0 conicto
192 0 lineto
192 2304 lineto
448 2048 moveto
448 1344 lineto
806 1344 lineto
960 1344 1058 1370 conicto
1157 1397 1217 1443 conicto
1278 1489 1307 1554 conicto
1337 1620 1344 1694 conicto
1337 1769 1309 1832 conicto
1282 1896 1223 1943 conicto
1165 1991 1073 2019 conicto
982 2048 847 2048 conicto
448 2048 lineto
448 1088 moveto
448 256 lineto
877 256 lineto
1166 256 1280 370 conicto
1394 484 1408 657 conicto
1401 752 1368 830 conicto
1336 908 1269 967 conicto
1202 1027 1088 1057 conicto
975 1088 816 1088 conicto
448 1088 lineto
end_ol grestore 
gsave 15.755637 3.600000 translate 0.035278 -0.035278 scale
start_ol
end_ol grestore 
gsave 15.995408 3.600000 translate 0.035278 -0.035278 scale
start_ol
192 1664 moveto
1664 1664 lineto
1664 1408 lineto
192 1408 lineto
192 1664 lineto
192 896 moveto
1664 896 lineto
1664 640 lineto
192 640 lineto
192 896 lineto
end_ol grestore 
gsave 16.235178 3.600000 translate 0.035278 -0.035278 scale
start_ol
end_ol grestore 
gsave 16.474948 3.600000 translate 0.035278 -0.035278 scale
start_ol
256 1937 moveto
358 2112 534 2208 conicto
710 2304 915 2304 conicto
1055 2304 1180 2254 conicto
1305 2205 1399 2117 conicto
1494 2029 1547 1911 conicto
1600 1794 1600 1662 conicto
1600 1556 1568 1460 conicto
1536 1365 1483 1278 conicto
1431 1192 1361 1113 conicto
1292 1035 1216 968 conicto
991 763 lineto
942 719 882 662 conicto
822 605 763 539 conicto
705 474 648 401 conicto
592 329 551 256 conicto
1512 256 lineto
1530 256 1550 272 conicto
1571 288 1589 288 conicto
1600 288 lineto
1600 0 lineto
256 0 lineto
256 185 lineto
394 445 555 634 conicto
716 824 865 952 conicto
1045 1109 lineto
1138 1191 1196 1260 conicto
1254 1330 1288 1394 conicto
1322 1459 1333 1518 conicto
1344 1577 1344 1637 conicto
1344 1716 1310 1789 conicto
1276 1862 1213 1921 conicto
1150 1980 1072 2014 conicto
994 2048 910 2048 conicto
811 2048 733 2024 conicto
655 2000 596 1966 conicto
538 1933 503 1896 conicto
469 1859 465 1830 conicto
458 1802 450 1792 conicto
256 1937 lineto
end_ol grestore 
gsave 16.714719 3.600000 translate 0.035278 -0.035278 scale
start_ol
774 1920 moveto
1101 1920 lineto
1097 1897 1089 1869 conicto
1082 1841 1079 1818 conicto
1024 1262 lineto
1629 1524 lineto
1728 1298 lineto
1075 1106 lineto
1536 547 lineto
1333 388 lineto
934 1005 lineto
520 384 lineto
320 547 lineto
777 1102 lineto
128 1298 lineto
225 1539 lineto
832 1262 lineto
774 1920 lineto
end_ol grestore 
gsave 16.954489 3.600000 translate 0.035278 -0.035278 scale
start_ol
end_ol grestore 
gsave 17.194259 3.600000 translate 0.035278 -0.035278 scale
start_ol
1600 1455 moveto
1447 1216 lineto
1428 1219 1428 1241 conicto
1428 1264 1420 1274 conicto
1352 1347 1227 1409 conicto
1102 1472 943 1472 conicto
871 1472 805 1456 conicto
739 1441 688 1414 conicto
637 1387 606 1344 conicto
576 1302 576 1247 conicto
576 1207 598 1174 conicto
620 1142 667 1111 conicto
715 1081 801 1050 conicto
887 1019 1026 982 conicto
1340 896 1470 778 conicto
1600 660 1600 487 conicto
1600 375 1552 273 conicto
1504 172 1412 97 conicto
1321 22 1192 -21 conicto
1063 -64 902 -64 conicto
479 -64 192 192 conicto
342 448 lineto
353 439 357 419 conicto
361 399 383 371 conicto
406 344 465 309 conicto
525 274 649 232 conicto
705 210 776 201 conicto
847 192 918 192 conicto
993 192 1069 209 conicto
1146 227 1207 260 conicto
1269 293 1306 339 conicto
1344 386 1344 445 conicto
1344 535 1256 597 conicto
1168 660 934 726 conicto
773 775 722 794 conicto
591 847 532 887 conicto
474 927 426 982 conicto
379 1037 349 1107 conicto
320 1178 320 1261 conicto
320 1352 368 1435 conicto
416 1519 503 1583 conicto
590 1648 710 1688 conicto
831 1728 971 1728 conicto
1360 1728 1600 1455 conicto
end_ol grestore 
gsave 17.434030 3.600000 translate 0.035278 -0.035278 scale
start_ol
384 1664 moveto
1024 1664 lineto
1024 256 lineto
1408 256 lineto
1408 0 lineto
320 0 lineto
320 256 lineto
768 256 lineto
768 1408 lineto
384 1408 lineto
384 1664 lineto
760 2376 moveto
816 2432 894 2432 conicto
972 2432 1030 2374 conicto
1088 2316 1088 2238 conicto
1088 2160 1030 2104 conicto
972 2048 894 2048 conicto
816 2048 760 2104 conicto
704 2160 704 2238 conicto
704 2320 760 2376 conicto
end_ol grestore 
gsave 17.673800 3.600000 translate 0.035278 -0.035278 scale
start_ol
256 1664 moveto
1536 1664 lineto
1536 1465 lineto
550 256 lineto
1492 256 lineto
1517 256 1546 267 conicto
1576 278 1600 278 conicto
1600 0 lineto
192 0 lineto
192 202 lineto
1197 1408 lineto
256 1408 lineto
256 1664 lineto
end_ol grestore 
gsave 17.913571 3.600000 translate 0.035278 -0.035278 scale
start_ol
973 1728 moveto
1106 1728 1232 1678 conicto
1359 1628 1454 1526 conicto
1549 1425 1606 1267 conicto
1664 1110 1664 895 conicto
1664 864 1662 831 conicto
1660 799 1657 768 conicto
448 768 lineto
455 605 508 495 conicto
562 385 642 317 conicto
723 250 822 221 conicto
921 192 1020 192 conicto
1281 192 1453 320 conicto
1600 183 lineto
1387 -64 1012 -64 conicto
828 -64 675 -6 conicto
523 52 416 164 conicto
310 277 251 444 conicto
192 611 192 825 conicto
192 1042 253 1210 conicto
315 1379 421 1493 conicto
527 1608 668 1668 conicto
809 1728 973 1728 conicto
459 1024 moveto
1404 1024 lineto
1404 1037 1406 1048 conicto
1408 1059 1408 1076 conicto
1408 1156 1372 1228 conicto
1336 1301 1276 1354 conicto
1216 1408 1135 1440 conicto
1054 1472 960 1472 conicto
783 1472 640 1364 conicto
497 1256 459 1024 conicto
end_ol grestore 
gsave 18.153341 3.600000 translate 0.035278 -0.035278 scale
start_ol
end_ol grestore 
gsave 18.393111 3.600000 translate 0.035278 -0.035278 scale
start_ol
911 1728 moveto
1064 1728 1201 1666 conicto
1339 1605 1441 1489 conicto
1543 1373 1603 1206 conicto
1664 1040 1664 834 conicto
1664 624 1605 459 conicto
1547 295 1444 177 conicto
1342 59 1203 -2 conicto
1064 -64 907 -64 conicto
746 -64 605 3 conicto
464 71 358 188 conicto
252 306 190 471 conicto
128 636 128 826 conicto
128 1017 192 1185 conicto
256 1354 364 1472 conicto
472 1590 614 1659 conicto
757 1728 911 1728 conicto
1408 825 moveto
1408 979 1364 1099 conicto
1321 1220 1249 1303 conicto
1178 1386 1086 1429 conicto
994 1472 892 1472 conicto
791 1472 698 1429 conicto
606 1386 536 1303 conicto
467 1220 425 1103 conicto
384 987 384 839 conicto
384 695 425 576 conicto
467 458 536 371 conicto
606 285 700 238 conicto
794 192 900 192 conicto
1005 192 1097 233 conicto
1190 275 1259 355 conicto
1329 436 1368 555 conicto
1408 674 1408 825 conicto
end_ol grestore 
gsave 18.632882 3.600000 translate 0.035278 -0.035278 scale
start_ol
1226 2432 moveto
1538 2432 1728 2213 conicto
1611 1984 lineto
1582 1984 1582 2005 conicto
1582 2027 1575 2037 conicto
1518 2099 1424 2137 conicto
1330 2176 1220 2176 conicto
1127 2176 1059 2150 conicto
992 2124 938 2065 conicto
885 2006 858 1905 conicto
832 1804 832 1658 conicto
832 1536 lineto
1344 1536 lineto
1344 1280 lineto
832 1280 lineto
832 0 lineto
576 0 lineto
576 1280 lineto
192 1280 lineto
192 1536 lineto
576 1536 lineto
576 1703 lineto
576 1900 624 2039 conicto
673 2179 764 2264 conicto
856 2350 972 2391 conicto
1089 2432 1226 2432 conicto
end_ol grestore 
gsave 18.872652 3.600000 translate 0.035278 -0.035278 scale
start_ol
end_ol grestore 
gsave 19.112422 3.600000 translate 0.035278 -0.035278 scale
start_ol
256 2304 moveto
545 2304 lineto
545 2278 528 2245 conicto
512 2213 512 2180 conicto
512 256 lineto
1600 256 lineto
1600 0 lineto
256 0 lineto
256 2304 lineto
end_ol grestore 
gsave 19.352193 3.600000 translate 0.035278 -0.035278 scale
start_ol
1472 1703 moveto
1472 1531 1380 1390 conicto
1288 1250 1137 1189 conicto
1316 1127 1426 966 conicto
1536 805 1536 601 conicto
1536 466 1487 345 conicto
1439 225 1347 133 conicto
1256 42 1122 -11 conicto
989 -64 820 -64 conicto
490 -64 256 207 conicto
449 448 lineto
463 433 470 398 conicto
477 364 495 342 conicto
544 294 lineto
572 265 658 228 conicto
745 192 836 192 conicto
931 192 1012 226 conicto
1093 260 1153 320 conicto
1213 380 1246 460 conicto
1280 541 1280 630 conicto
1280 815 1134 923 conicto
989 1031 751 1031 conicto
723 1031 696 1029 conicto
669 1027 640 1024 conicto
640 1280 lineto
802 1280 910 1314 conicto
1019 1349 1087 1407 conicto
1156 1466 1186 1544 conicto
1216 1622 1216 1713 conicto
1216 1779 1188 1839 conicto
1160 1899 1111 1944 conicto
1062 1990 991 2019 conicto
921 2048 837 2048 conicto
613 2048 462 1920 conicto
320 2070 lineto
539 2304 855 2304 conicto
984 2304 1097 2256 conicto
1210 2209 1292 2125 conicto
1375 2041 1423 1933 conicto
1472 1825 1472 1703 conicto
end_ol grestore 
0.050000 slw
[] 0 sd
0 slj
0 slc
1.000000 1.000000 1.000000 srgb
n 11.000000 7.000000 m 22.000000 7.000000 l 22.000000 8.000000 l 11.000000 8.000000 l ef
0.000000 0.000000 0.000000 srgb
n 11.000000 7.000000 m 22.000000 7.000000 l 22.000000 8.000000 l 11.000000 8.000000 l cp s
0.050000 slw
[] 0 sd
0 slc
n 14.000000 7.000000 m 14.000000 8.000000 l s
0.050000 slw
[] 0 sd
0 slc
n 15.000000 7.000000 m 15.000000 8.000000 l s
0.050000 slw
[] 0 sd
0 slc
n 12.000000 7.000000 m 12.000000 8.000000 l s
0.050000 slw
[] 0 sd
0 slc
n 13.000000 7.000000 m 13.000000 8.000000 l s
0.050000 slw
[] 0 sd
0 slc
n 18.000000 7.000000 m 18.000000 8.000000 l s
0.050000 slw
[] 0 sd
0 slc
n 20.000000 7.000000 m 20.000000 8.000000 l s
gsave 16.140000 7.500000 translate 0.035278 -0.035278 scale
start_ol
1020 318 moveto
1088 248 1088 158 conicto
1088 68 1022 2 conicto
956 -64 862 -64 conicto
768 -64 704 0 conicto
640 65 640 158 conicto
640 252 708 318 conicto
776 384 862 384 conicto
949 384 1020 318 conicto
end_ol grestore 
gsave 16.379770 7.500000 translate 0.035278 -0.035278 scale
start_ol
1020 318 moveto
1088 248 1088 158 conicto
1088 68 1022 2 conicto
956 -64 862 -64 conicto
768 -64 704 0 conicto
640 65 640 158 conicto
640 252 708 318 conicto
776 384 862 384 conicto
949 384 1020 318 conicto
end_ol grestore 
gsave 16.619541 7.500000 translate 0.035278 -0.035278 scale
start_ol
1020 318 moveto
1088 248 1088 158 conicto
1088 68 1022 2 conicto
956 -64 862 -64 conicto
768 -64 704 0 conicto
640 65 640 158 conicto
640 252 708 318 conicto
776 384 862 384 conicto
949 384 1020 318 conicto
end_ol grestore 
gsave 9.600000 7.600000 translate 0.035278 -0.035278 scale
start_ol
384 1664 moveto
1024 1664 lineto
1024 256 lineto
1408 256 lineto
1408 0 lineto
320 0 lineto
320 256 lineto
768 256 lineto
768 1408 lineto
384 1408 lineto
384 1664 lineto
760 2376 moveto
816 2432 894 2432 conicto
972 2432 1030 2374 conicto
1088 2316 1088 2238 conicto
1088 2160 1030 2104 conicto
972 2048 894 2048 conicto
816 2048 760 2104 conicto
704 2160 704 2238 conicto
704 2320 760 2376 conicto
end_ol grestore 
gsave 9.839770 7.600000 translate 0.035278 -0.035278 scale
start_ol
256 0 moveto
256 1664 lineto
512 1664 lineto
512 1388 lineto
610 1543 761 1635 conicto
913 1728 1071 1728 conicto
1184 1728 1281 1689 conicto
1379 1650 1450 1565 conicto
1521 1481 1560 1348 conicto
1600 1215 1600 1023 conicto
1600 0 lineto
1344 0 lineto
1344 1000 lineto
1344 1261 1251 1366 conicto
1158 1472 1025 1472 conicto
937 1472 846 1435 conicto
755 1399 681 1332 conicto
607 1265 559 1170 conicto
512 1076 512 956 conicto
512 0 lineto
256 0 lineto
end_ol grestore 
gsave 10.079541 7.600000 translate 0.035278 -0.035278 scale
start_ol
1355 1432 moveto
1355 2432 lineto
1633 2432 lineto
1633 2410 1614 2382 conicto
1596 2355 1596 2330 conicto
1600 154 lineto
1600 66 1619 0 conicto
1358 0 lineto
1344 41 1344 115 conicto
1344 247 lineto
1266 105 1130 20 conicto
994 -64 855 -64 conicto
720 -64 600 -8 conicto
481 48 390 160 conicto
299 273 245 443 conicto
192 613 192 845 conicto
192 1081 252 1247 conicto
313 1414 411 1520 conicto
510 1627 631 1677 conicto
752 1728 877 1728 conicto
1048 1728 1171 1647 conicto
1294 1567 1355 1432 conicto
600 1350 moveto
448 1210 448 877 conicto
448 568 565 380 conicto
682 192 908 192 conicto
961 192 1021 211 conicto
1082 231 1135 270 conicto
1188 310 1230 364 conicto
1273 418 1294 486 conicto
1333 615 1333 830 conicto
1333 966 1322 1057 conicto
1312 1149 1289 1213 conicto
1266 1278 1230 1319 conicto
1195 1361 1142 1393 conicto
1078 1433 1023 1452 conicto
968 1472 919 1472 conicto
816 1472 743 1443 conicto
671 1415 600 1350 conicto
end_ol grestore 
gsave 10.319311 7.600000 translate 0.035278 -0.035278 scale
start_ol
973 1728 moveto
1106 1728 1232 1678 conicto
1359 1628 1454 1526 conicto
1549 1425 1606 1267 conicto
1664 1110 1664 895 conicto
1664 864 1662 831 conicto
1660 799 1657 768 conicto
448 768 lineto
455 605 508 495 conicto
562 385 642 317 conicto
723 250 822 221 conicto
921 192 1020 192 conicto
1281 192 1453 320 conicto
1600 183 lineto
1387 -64 1012 -64 conicto
828 -64 675 -6 conicto
523 52 416 164 conicto
310 277 251 444 conicto
192 611 192 825 conicto
192 1042 253 1210 conicto
315 1379 421 1493 conicto
527 1608 668 1668 conicto
809 1728 973 1728 conicto
459 1024 moveto
1404 1024 lineto
1404 1037 1406 1048 conicto
1408 1059 1408 1076 conicto
1408 1156 1372 1228 conicto
1336 1301 1276 1354 conicto
1216 1408 1135 1440 conicto
1054 1472 960 1472 conicto
783 1472 640 1364 conicto
497 1256 459 1024 conicto
end_ol grestore 
gsave 10.559082 7.600000 translate 0.035278 -0.035278 scale
start_ol
1321 1664 moveto
1591 1664 lineto
1059 856 lineto
1664 0 lineto
1365 0 lineto
915 648 lineto
491 0 lineto
192 0 lineto
771 845 lineto
203 1664 lineto
491 1664 lineto
915 1049 lineto
1321 1664 lineto
end_ol grestore 
gsave 11.200000 6.600000 translate 0.035278 -0.035278 scale
start_ol
320 1505 moveto
547 1728 927 1728 conicto
1239 1728 1419 1570 conicto
1600 1413 1600 1047 conicto
1600 0 lineto
1348 0 lineto
1348 159 lineto
1083 -64 752 -64 conicto
621 -64 517 -24 conicto
414 16 341 82 conicto
268 148 230 232 conicto
192 316 192 400 conicto
192 653 408 799 conicto
624 945 1031 960 conicto
1344 960 lineto
1344 1023 lineto
1344 1273 1238 1372 conicto
1132 1472 908 1472 conicto
633 1472 450 1344 conicto
320 1505 lineto
1355 701 moveto
1293 701 lineto
1242 701 1196 702 conicto
1150 704 1106 704 conicto
905 704 777 681 conicto
649 659 576 620 conicto
503 581 475 531 conicto
448 482 448 426 conicto
448 330 550 261 conicto
653 192 803 192 conicto
912 192 1000 220 conicto
1088 249 1154 289 conicto
1220 330 1260 373 conicto
1300 417 1318 449 conicto
1355 509 1355 611 conicto
1355 701 lineto
end_ol grestore 
gsave 11.439770 6.600000 translate 0.035278 -0.035278 scale
start_ol
384 1664 moveto
648 1664 lineto
640 1363 lineto
715 1540 878 1634 conicto
1041 1728 1227 1728 conicto
1492 1728 1664 1540 conicto
1544 1280 lineto
1505 1331 1472 1364 conicto
1440 1398 1402 1421 conicto
1365 1445 1320 1458 conicto
1276 1472 1212 1472 conicto
1094 1472 990 1417 conicto
887 1362 810 1272 conicto
733 1182 686 1065 conicto
640 949 640 822 conicto
640 0 lineto
384 0 lineto
384 1664 lineto
end_ol grestore 
gsave 11.679541 6.600000 translate 0.035278 -0.035278 scale
start_ol
384 1664 moveto
648 1664 lineto
640 1363 lineto
715 1540 878 1634 conicto
1041 1728 1227 1728 conicto
1492 1728 1664 1540 conicto
1544 1280 lineto
1505 1331 1472 1364 conicto
1440 1398 1402 1421 conicto
1365 1445 1320 1458 conicto
1276 1472 1212 1472 conicto
1094 1472 990 1417 conicto
887 1362 810 1272 conicto
733 1182 686 1065 conicto
640 949 640 822 conicto
640 0 lineto
384 0 lineto
384 1664 lineto
end_ol grestore 
gsave 11.919311 6.600000 translate 0.035278 -0.035278 scale
start_ol
320 1505 moveto
547 1728 927 1728 conicto
1239 1728 1419 1570 conicto
1600 1413 1600 1047 conicto
1600 0 lineto
1348 0 lineto
1348 159 lineto
1083 -64 752 -64 conicto
621 -64 517 -24 conicto
414 16 341 82 conicto
268 148 230 232 conicto
192 316 192 400 conicto
192 653 408 799 conicto
624 945 1031 960 conicto
1344 960 lineto
1344 1023 lineto
1344 1273 1238 1372 conicto
1132 1472 908 1472 conicto
633 1472 450 1344 conicto
320 1505 lineto
1355 701 moveto
1293 701 lineto
1242 701 1196 702 conicto
1150 704 1106 704 conicto
905 704 777 681 conicto
649 659 576 620 conicto
503 581 475 531 conicto
448 482 448 426 conicto
448 330 550 261 conicto
653 192 803 192 conicto
912 192 1000 220 conicto
1088 249 1154 289 conicto
1220 330 1260 373 conicto
1300 417 1318 449 conicto
1355 509 1355 611 conicto
1355 701 lineto
end_ol grestore 
gsave 12.159082 6.600000 translate 0.035278 -0.035278 scale
start_ol
205 1547 moveto
158 1664 lineto
468 1664 lineto
468 1635 461 1614 conicto
454 1594 454 1576 conicto
454 1562 461 1554 conicto
978 325 lineto
1317 1221 lineto
1367 1349 1398 1461 conicto
1430 1573 1449 1664 conicto
1705 1664 lineto
1672 1569 1633 1448 conicto
1595 1328 1541 1182 conicto
1088 -12 lineto
1021 -195 lineto
936 -439 804 -539 conicto
672 -640 499 -640 conicto
269 -640 128 -495 conicto
256 -256 lineto
266 -265 273 -284 conicto
280 -303 283 -308 conicto
283 -308 296 -321 conicto
310 -335 332 -348 conicto
354 -361 387 -372 conicto
421 -384 461 -384 conicto
559 -384 635 -325 conicto
711 -266 785 -112 conicto
832 0 lineto
205 1547 lineto
end_ol grestore 
gsave 12.398852 6.600000 translate 0.035278 -0.035278 scale
start_ol
end_ol grestore 
gsave 12.638622 6.600000 translate 0.035278 -0.035278 scale
start_ol
911 1728 moveto
1064 1728 1201 1666 conicto
1339 1605 1441 1489 conicto
1543 1373 1603 1206 conicto
1664 1040 1664 834 conicto
1664 624 1605 459 conicto
1547 295 1444 177 conicto
1342 59 1203 -2 conicto
1064 -64 907 -64 conicto
746 -64 605 3 conicto
464 71 358 188 conicto
252 306 190 471 conicto
128 636 128 826 conicto
128 1017 192 1185 conicto
256 1354 364 1472 conicto
472 1590 614 1659 conicto
757 1728 911 1728 conicto
1408 825 moveto
1408 979 1364 1099 conicto
1321 1220 1249 1303 conicto
1178 1386 1086 1429 conicto
994 1472 892 1472 conicto
791 1472 698 1429 conicto
606 1386 536 1303 conicto
467 1220 425 1103 conicto
384 987 384 839 conicto
384 695 425 576 conicto
467 458 536 371 conicto
606 285 700 238 conicto
794 192 900 192 conicto
1005 192 1097 233 conicto
1190 275 1259 355 conicto
1329 436 1368 555 conicto
1408 674 1408 825 conicto
end_ol grestore 
gsave 12.878393 6.600000 translate 0.035278 -0.035278 scale
start_ol
1226 2432 moveto
1538 2432 1728 2213 conicto
1611 1984 lineto
1582 1984 1582 2005 conicto
1582 2027 1575 2037 conicto
1518 2099 1424 2137 conicto
1330 2176 1220 2176 conicto
1127 2176 1059 2150 conicto
992 2124 938 2065 conicto
885 2006 858 1905 conicto
832 1804 832 1658 conicto
832 1536 lineto
1344 1536 lineto
1344 1280 lineto
832 1280 lineto
832 0 lineto
576 0 lineto
576 1280 lineto
192 1280 lineto
192 1536 lineto
576 1536 lineto
576 1703 lineto
576 1900 624 2039 conicto
673 2179 764 2264 conicto
856 2350 972 2391 conicto
1089 2432 1226 2432 conicto
end_ol grestore 
gsave 13.118163 6.600000 translate 0.035278 -0.035278 scale
start_ol
end_ol grestore 
gsave 13.357933 6.600000 translate 0.035278 -0.035278 scale
start_ol
1088 2304 moveto
1088 0 lineto
832 0 lineto
832 1990 lineto
378 1856 lineto
320 1998 lineto
910 2304 lineto
1088 2304 lineto
end_ol grestore 
gsave 13.597704 6.600000 translate 0.035278 -0.035278 scale
start_ol
1428 1996 moveto
1535 1851 1599 1617 conicto
1664 1384 1664 1094 conicto
1664 801 1599 584 conicto
1535 367 1430 222 conicto
1325 77 1192 6 conicto
1060 -64 924 -64 conicto
784 -64 652 21 conicto
520 107 416 261 conicto
313 415 252 632 conicto
192 849 192 1113 conicto
192 1376 252 1595 conicto
313 1814 416 1972 conicto
520 2130 652 2217 conicto
784 2304 924 2304 conicto
1211 2304 1428 1996 conicto
1280 1755 moveto
1209 1900 1116 1974 conicto
1024 2048 928 2048 conicto
839 2048 752 1983 conicto
665 1918 597 1802 conicto
530 1686 489 1519 conicto
448 1353 448 1154 conicto
448 930 498 727 conicto
1280 1755 lineto
1362 1513 moveto
580 500 lineto
665 337 759 264 conicto
854 192 946 192 conicto
1042 192 1125 251 conicto
1209 311 1271 423 conicto
1333 536 1370 697 conicto
1408 858 1408 1061 conicto
1408 1187 1397 1299 conicto
1387 1412 1362 1513 conicto
end_ol grestore 
gsave 13.837474 6.600000 translate 0.035278 -0.035278 scale
start_ol
1428 1996 moveto
1535 1851 1599 1617 conicto
1664 1384 1664 1094 conicto
1664 801 1599 584 conicto
1535 367 1430 222 conicto
1325 77 1192 6 conicto
1060 -64 924 -64 conicto
784 -64 652 21 conicto
520 107 416 261 conicto
313 415 252 632 conicto
192 849 192 1113 conicto
192 1376 252 1595 conicto
313 1814 416 1972 conicto
520 2130 652 2217 conicto
784 2304 924 2304 conicto
1211 2304 1428 1996 conicto
1280 1755 moveto
1209 1900 1116 1974 conicto
1024 2048 928 2048 conicto
839 2048 752 1983 conicto
665 1918 597 1802 conicto
530 1686 489 1519 conicto
448 1353 448 1154 conicto
448 930 498 727 conicto
1280 1755 lineto
1362 1513 moveto
580 500 lineto
665 337 759 264 conicto
854 192 946 192 conicto
1042 192 1125 251 conicto
1209 311 1271 423 conicto
1333 536 1370 697 conicto
1408 858 1408 1061 conicto
1408 1187 1397 1299 conicto
1387 1412 1362 1513 conicto
end_ol grestore 
gsave 14.077245 6.600000 translate 0.035278 -0.035278 scale
start_ol
1428 1996 moveto
1535 1851 1599 1617 conicto
1664 1384 1664 1094 conicto
1664 801 1599 584 conicto
1535 367 1430 222 conicto
1325 77 1192 6 conicto
1060 -64 924 -64 conicto
784 -64 652 21 conicto
520 107 416 261 conicto
313 415 252 632 conicto
192 849 192 1113 conicto
192 1376 252 1595 conicto
313 1814 416 1972 conicto
520 2130 652 2217 conicto
784 2304 924 2304 conicto
1211 2304 1428 1996 conicto
1280 1755 moveto
1209 1900 1116 1974 conicto
1024 2048 928 2048 conicto
839 2048 752 1983 conicto
665 1918 597 1802 conicto
530 1686 489 1519 conicto
448 1353 448 1154 conicto
448 930 498 727 conicto
1280 1755 lineto
1362 1513 moveto
580 500 lineto
665 337 759 264 conicto
854 192 946 192 conicto
1042 192 1125 251 conicto
1209 311 1271 423 conicto
1333 536 1370 697 conicto
1408 858 1408 1061 conicto
1408 1187 1397 1299 conicto
1387 1412 1362 1513 conicto
end_ol grestore 
gsave 14.317015 6.600000 translate 0.035278 -0.035278 scale
start_ol
1428 1996 moveto
1535 1851 1599 1617 conicto
1664 1384 1664 1094 conicto
1664 801 1599 584 conicto
1535 367 1430 222 conicto
1325 77 1192 6 conicto
1060 -64 924 -64 conicto
784 -64 652 21 conicto
520 107 416 261 conicto
313 415 252 632 conicto
192 849 192 1113 conicto
192 1376 252 1595 conicto
313 1814 416 1972 conicto
520 2130 652 2217 conicto
784 2304 924 2304 conicto
1211 2304 1428 1996 conicto
1280 1755 moveto
1209 1900 1116 1974 conicto
1024 2048 928 2048 conicto
839 2048 752 1983 conicto
665 1918 597 1802 conicto
530 1686 489 1519 conicto
448 1353 448 1154 conicto
448 930 498 727 conicto
1280 1755 lineto
1362 1513 moveto
580 500 lineto
665 337 759 264 conicto
854 192 946 192 conicto
1042 192 1125 251 conicto
1209 311 1271 423 conicto
1333 536 1370 697 conicto
1408 858 1408 1061 conicto
1408 1187 1397 1299 conicto
1387 1412 1362 1513 conicto
end_ol grestore 
gsave 14.556785 6.600000 translate 0.035278 -0.035278 scale
start_ol
end_ol grestore 
gsave 14.796556 6.600000 translate 0.035278 -0.035278 scale
start_ol
256 2432 moveto
1024 2432 lineto
1024 256 lineto
1536 256 lineto
1536 0 lineto
256 0 lineto
256 256 lineto
768 256 lineto
768 2176 lineto
256 2176 lineto
256 2432 lineto
end_ol grestore 
gsave 15.036326 6.600000 translate 0.035278 -0.035278 scale
start_ol
384 1664 moveto
1024 1664 lineto
1024 256 lineto
1408 256 lineto
1408 0 lineto
320 0 lineto
320 256 lineto
768 256 lineto
768 1408 lineto
384 1408 lineto
384 1664 lineto
760 2376 moveto
816 2432 894 2432 conicto
972 2432 1030 2374 conicto
1088 2316 1088 2238 conicto
1088 2160 1030 2104 conicto
972 2048 894 2048 conicto
816 2048 760 2104 conicto
704 2160 704 2238 conicto
704 2320 760 2376 conicto
end_ol grestore 
gsave 15.276096 6.600000 translate 0.035278 -0.035278 scale
start_ol
256 0 moveto
256 1664 lineto
512 1664 lineto
512 1388 lineto
610 1543 761 1635 conicto
913 1728 1071 1728 conicto
1184 1728 1281 1689 conicto
1379 1650 1450 1565 conicto
1521 1481 1560 1348 conicto
1600 1215 1600 1023 conicto
1600 0 lineto
1344 0 lineto
1344 1000 lineto
1344 1261 1251 1366 conicto
1158 1472 1025 1472 conicto
937 1472 846 1435 conicto
755 1399 681 1332 conicto
607 1265 559 1170 conicto
512 1076 512 956 conicto
512 0 lineto
256 0 lineto
end_ol grestore 
gsave 15.515867 6.600000 translate 0.035278 -0.035278 scale
start_ol
973 1728 moveto
1106 1728 1232 1678 conicto
1359 1628 1454 1526 conicto
1549 1425 1606 1267 conicto
1664 1110 1664 895 conicto
1664 864 1662 831 conicto
1660 799 1657 768 conicto
448 768 lineto
455 605 508 495 conicto
562 385 642 317 conicto
723 250 822 221 conicto
921 192 1020 192 conicto
1281 192 1453 320 conicto
1600 183 lineto
1387 -64 1012 -64 conicto
828 -64 675 -6 conicto
523 52 416 164 conicto
310 277 251 444 conicto
192 611 192 825 conicto
192 1042 253 1210 conicto
315 1379 421 1493 conicto
527 1608 668 1668 conicto
809 1728 973 1728 conicto
459 1024 moveto
1404 1024 lineto
1404 1037 1406 1048 conicto
1408 1059 1408 1076 conicto
1408 1156 1372 1228 conicto
1336 1301 1276 1354 conicto
1216 1408 1135 1440 conicto
1054 1472 960 1472 conicto
783 1472 640 1364 conicto
497 1256 459 1024 conicto
end_ol grestore 
gsave 15.755637 6.600000 translate 0.035278 -0.035278 scale
start_ol
320 1505 moveto
547 1728 927 1728 conicto
1239 1728 1419 1570 conicto
1600 1413 1600 1047 conicto
1600 0 lineto
1348 0 lineto
1348 159 lineto
1083 -64 752 -64 conicto
621 -64 517 -24 conicto
414 16 341 82 conicto
268 148 230 232 conicto
192 316 192 400 conicto
192 653 408 799 conicto
624 945 1031 960 conicto
1344 960 lineto
1344 1023 lineto
1344 1273 1238 1372 conicto
1132 1472 908 1472 conicto
633 1472 450 1344 conicto
320 1505 lineto
1355 701 moveto
1293 701 lineto
1242 701 1196 702 conicto
1150 704 1106 704 conicto
905 704 777 681 conicto
649 659 576 620 conicto
503 581 475 531 conicto
448 482 448 426 conicto
448 330 550 261 conicto
653 192 803 192 conicto
912 192 1000 220 conicto
1088 249 1154 289 conicto
1220 330 1260 373 conicto
1300 417 1318 449 conicto
1355 509 1355 611 conicto
1355 701 lineto
end_ol grestore 
gsave 15.995408 6.600000 translate 0.035278 -0.035278 scale
start_ol
384 1664 moveto
648 1664 lineto
640 1363 lineto
715 1540 878 1634 conicto
1041 1728 1227 1728 conicto
1492 1728 1664 1540 conicto
1544 1280 lineto
1505 1331 1472 1364 conicto
1440 1398 1402 1421 conicto
1365 1445 1320 1458 conicto
1276 1472 1212 1472 conicto
1094 1472 990 1417 conicto
887 1362 810 1272 conicto
733 1182 686 1065 conicto
640 949 640 822 conicto
640 0 lineto
384 0 lineto
384 1664 lineto
end_ol grestore 
gsave 16.235178 6.600000 translate 0.035278 -0.035278 scale
start_ol
end_ol grestore 
gsave 16.474948 6.600000 translate 0.035278 -0.035278 scale
start_ol
384 1664 moveto
1024 1664 lineto
1024 256 lineto
1408 256 lineto
1408 0 lineto
320 0 lineto
320 256 lineto
768 256 lineto
768 1408 lineto
384 1408 lineto
384 1664 lineto
760 2376 moveto
816 2432 894 2432 conicto
972 2432 1030 2374 conicto
1088 2316 1088 2238 conicto
1088 2160 1030 2104 conicto
972 2048 894 2048 conicto
816 2048 760 2104 conicto
704 2160 704 2238 conicto
704 2320 760 2376 conicto
end_ol grestore 
gsave 16.714719 6.600000 translate 0.035278 -0.035278 scale
start_ol
256 0 moveto
256 1664 lineto
512 1664 lineto
512 1388 lineto
610 1543 761 1635 conicto
913 1728 1071 1728 conicto
1184 1728 1281 1689 conicto
1379 1650 1450 1565 conicto
1521 1481 1560 1348 conicto
1600 1215 1600 1023 conicto
1600 0 lineto
1344 0 lineto
1344 1000 lineto
1344 1261 1251 1366 conicto
1158 1472 1025 1472 conicto
937 1472 846 1435 conicto
755 1399 681 1332 conicto
607 1265 559 1170 conicto
512 1076 512 956 conicto
512 0 lineto
256 0 lineto
end_ol grestore 
gsave 16.954489 6.600000 translate 0.035278 -0.035278 scale
start_ol
1355 1432 moveto
1355 2432 lineto
1633 2432 lineto
1633 2410 1614 2382 conicto
1596 2355 1596 2330 conicto
1600 154 lineto
1600 66 1619 0 conicto
1358 0 lineto
1344 41 1344 115 conicto
1344 247 lineto
1266 105 1130 20 conicto
994 -64 855 -64 conicto
720 -64 600 -8 conicto
481 48 390 160 conicto
299 273 245 443 conicto
192 613 192 845 conicto
192 1081 252 1247 conicto
313 1414 411 1520 conicto
510 1627 631 1677 conicto
752 1728 877 1728 conicto
1048 1728 1171 1647 conicto
1294 1567 1355 1432 conicto
600 1350 moveto
448 1210 448 877 conicto
448 568 565 380 conicto
682 192 908 192 conicto
961 192 1021 211 conicto
1082 231 1135 270 conicto
1188 310 1230 364 conicto
1273 418 1294 486 conicto
1333 615 1333 830 conicto
1333 966 1322 1057 conicto
1312 1149 1289 1213 conicto
1266 1278 1230 1319 conicto
1195 1361 1142 1393 conicto
1078 1433 1023 1452 conicto
968 1472 919 1472 conicto
816 1472 743 1443 conicto
671 1415 600 1350 conicto
end_ol grestore 
gsave 17.194259 6.600000 translate 0.035278 -0.035278 scale
start_ol
973 1728 moveto
1106 1728 1232 1678 conicto
1359 1628 1454 1526 conicto
1549 1425 1606 1267 conicto
1664 1110 1664 895 conicto
1664 864 1662 831 conicto
1660 799 1657 768 conicto
448 768 lineto
455 605 508 495 conicto
562 385 642 317 conicto
723 250 822 221 conicto
921 192 1020 192 conicto
1281 192 1453 320 conicto
1600 183 lineto
1387 -64 1012 -64 conicto
828 -64 675 -6 conicto
523 52 416 164 conicto
310 277 251 444 conicto
192 611 192 825 conicto
192 1042 253 1210 conicto
315 1379 421 1493 conicto
527 1608 668 1668 conicto
809 1728 973 1728 conicto
459 1024 moveto
1404 1024 lineto
1404 1037 1406 1048 conicto
1408 1059 1408 1076 conicto
1408 1156 1372 1228 conicto
1336 1301 1276 1354 conicto
1216 1408 1135 1440 conicto
1054 1472 960 1472 conicto
783 1472 640 1364 conicto
497 1256 459 1024 conicto
end_ol grestore 
gsave 17.434030 6.600000 translate 0.035278 -0.035278 scale
start_ol
1321 1664 moveto
1591 1664 lineto
1059 856 lineto
1664 0 lineto
1365 0 lineto
915 648 lineto
491 0 lineto
192 0 lineto
771 845 lineto
203 1664 lineto
491 1664 lineto
915 1049 lineto
1321 1664 lineto
end_ol grestore 
gsave 17.673800 6.600000 translate 0.035278 -0.035278 scale
start_ol
end_ol grestore 
gsave 17.913571 6.600000 translate 0.035278 -0.035278 scale
start_ol
653 2109 moveto
931 2157 lineto
931 2124 922 2098 conicto
913 2073 909 2058 conicto
865 1664 lineto
1408 1664 lineto
1408 1408 lineto
865 1408 lineto
832 1090 832 811 conicto
832 639 839 521 conicto
847 403 879 335 conicto
911 267 971 229 conicto
1032 192 1133 192 conicto
1306 192 1517 320 conicto
1600 117 lineto
1345 -64 1075 -64 conicto
809 -64 687 93 conicto
565 251 576 605 conicto
576 735 583 937 conicto
591 1140 613 1408 conicto
192 1408 lineto
192 1664 lineto
624 1664 lineto
653 2109 lineto
end_ol grestore 
gsave 18.153341 6.600000 translate 0.035278 -0.035278 scale
start_ol
911 1728 moveto
1064 1728 1201 1666 conicto
1339 1605 1441 1489 conicto
1543 1373 1603 1206 conicto
1664 1040 1664 834 conicto
1664 624 1605 459 conicto
1547 295 1444 177 conicto
1342 59 1203 -2 conicto
1064 -64 907 -64 conicto
746 -64 605 3 conicto
464 71 358 188 conicto
252 306 190 471 conicto
128 636 128 826 conicto
128 1017 192 1185 conicto
256 1354 364 1472 conicto
472 1590 614 1659 conicto
757 1728 911 1728 conicto
1408 825 moveto
1408 979 1364 1099 conicto
1321 1220 1249 1303 conicto
1178 1386 1086 1429 conicto
994 1472 892 1472 conicto
791 1472 698 1429 conicto
606 1386 536 1303 conicto
467 1220 425 1103 conicto
384 987 384 839 conicto
384 695 425 576 conicto
467 458 536 371 conicto
606 285 700 238 conicto
794 192 900 192 conicto
1005 192 1097 233 conicto
1190 275 1259 355 conicto
1329 436 1368 555 conicto
1408 674 1408 825 conicto
end_ol grestore 
gsave 18.393111 6.600000 translate 0.035278 -0.035278 scale
start_ol
end_ol grestore 
gsave 18.632882 6.600000 translate 0.035278 -0.035278 scale
start_ol
320 1505 moveto
547 1728 927 1728 conicto
1239 1728 1419 1570 conicto
1600 1413 1600 1047 conicto
1600 0 lineto
1348 0 lineto
1348 159 lineto
1083 -64 752 -64 conicto
621 -64 517 -24 conicto
414 16 341 82 conicto
268 148 230 232 conicto
192 316 192 400 conicto
192 653 408 799 conicto
624 945 1031 960 conicto
1344 960 lineto
1344 1023 lineto
1344 1273 1238 1372 conicto
1132 1472 908 1472 conicto
633 1472 450 1344 conicto
320 1505 lineto
1355 701 moveto
1293 701 lineto
1242 701 1196 702 conicto
1150 704 1106 704 conicto
905 704 777 681 conicto
649 659 576 620 conicto
503 581 475 531 conicto
448 482 448 426 conicto
448 330 550 261 conicto
653 192 803 192 conicto
912 192 1000 220 conicto
1088 249 1154 289 conicto
1220 330 1260 373 conicto
1300 417 1318 449 conicto
1355 509 1355 611 conicto
1355 701 lineto
end_ol grestore 
gsave 18.872652 6.600000 translate 0.035278 -0.035278 scale
start_ol
1600 1426 moveto
1414 1216 lineto
1397 1225 1398 1236 conicto
1400 1247 1395 1265 conicto
1390 1284 1369 1311 conicto
1348 1339 1285 1386 conicto
1166 1472 959 1472 conicto
858 1472 765 1428 conicto
672 1384 602 1302 conicto
532 1220 490 1105 conicto
448 991 448 848 conicto
448 706 491 586 conicto
534 466 609 378 conicto
685 290 789 241 conicto
894 192 1019 192 conicto
1267 192 1447 384 conicto
1600 203 lineto
1357 -64 1003 -64 conicto
828 -64 679 3 conicto
531 71 422 191 conicto
314 312 253 475 conicto
192 639 192 834 conicto
192 1025 251 1190 conicto
311 1356 418 1474 conicto
526 1593 675 1660 conicto
824 1728 1000 1728 conicto
1189 1728 1345 1648 conicto
1502 1568 1600 1426 conicto
end_ol grestore 
gsave 19.112422 6.600000 translate 0.035278 -0.035278 scale
start_ol
1600 1426 moveto
1414 1216 lineto
1397 1225 1398 1236 conicto
1400 1247 1395 1265 conicto
1390 1284 1369 1311 conicto
1348 1339 1285 1386 conicto
1166 1472 959 1472 conicto
858 1472 765 1428 conicto
672 1384 602 1302 conicto
532 1220 490 1105 conicto
448 991 448 848 conicto
448 706 491 586 conicto
534 466 609 378 conicto
685 290 789 241 conicto
894 192 1019 192 conicto
1267 192 1447 384 conicto
1600 203 lineto
1357 -64 1003 -64 conicto
828 -64 679 3 conicto
531 71 422 191 conicto
314 312 253 475 conicto
192 639 192 834 conicto
192 1025 251 1190 conicto
311 1356 418 1474 conicto
526 1593 675 1660 conicto
824 1728 1000 1728 conicto
1189 1728 1345 1648 conicto
1502 1568 1600 1426 conicto
end_ol grestore 
gsave 19.352193 6.600000 translate 0.035278 -0.035278 scale
start_ol
973 1728 moveto
1106 1728 1232 1678 conicto
1359 1628 1454 1526 conicto
1549 1425 1606 1267 conicto
1664 1110 1664 895 conicto
1664 864 1662 831 conicto
1660 799 1657 768 conicto
448 768 lineto
455 605 508 495 conicto
562 385 642 317 conicto
723 250 822 221 conicto
921 192 1020 192 conicto
1281 192 1453 320 conicto
1600 183 lineto
1387 -64 1012 -64 conicto
828 -64 675 -6 conicto
523 52 416 164 conicto
310 277 251 444 conicto
192 611 192 825 conicto
192 1042 253 1210 conicto
315 1379 421 1493 conicto
527 1608 668 1668 conicto
809 1728 973 1728 conicto
459 1024 moveto
1404 1024 lineto
1404 1037 1406 1048 conicto
1408 1059 1408 1076 conicto
1408 1156 1372 1228 conicto
1336 1301 1276 1354 conicto
1216 1408 1135 1440 conicto
1054 1472 960 1472 conicto
783 1472 640 1364 conicto
497 1256 459 1024 conicto
end_ol grestore 
gsave 19.591963 6.600000 translate 0.035278 -0.035278 scale
start_ol
1600 1455 moveto
1447 1216 lineto
1428 1219 1428 1241 conicto
1428 1264 1420 1274 conicto
1352 1347 1227 1409 conicto
1102 1472 943 1472 conicto
871 1472 805 1456 conicto
739 1441 688 1414 conicto
637 1387 606 1344 conicto
576 1302 576 1247 conicto
576 1207 598 1174 conicto
620 1142 667 1111 conicto
715 1081 801 1050 conicto
887 1019 1026 982 conicto
1340 896 1470 778 conicto
1600 660 1600 487 conicto
1600 375 1552 273 conicto
1504 172 1412 97 conicto
1321 22 1192 -21 conicto
1063 -64 902 -64 conicto
479 -64 192 192 conicto
342 448 lineto
353 439 357 419 conicto
361 399 383 371 conicto
406 344 465 309 conicto
525 274 649 232 conicto
705 210 776 201 conicto
847 192 918 192 conicto
993 192 1069 209 conicto
1146 227 1207 260 conicto
1269 293 1306 339 conicto
1344 386 1344 445 conicto
1344 535 1256 597 conicto
1168 660 934 726 conicto
773 775 722 794 conicto
591 847 532 887 conicto
474 927 426 982 conicto
379 1037 349 1107 conicto
320 1178 320 1261 conicto
320 1352 368 1435 conicto
416 1519 503 1583 conicto
590 1648 710 1688 conicto
831 1728 971 1728 conicto
1360 1728 1600 1455 conicto
end_ol grestore 
gsave 19.831734 6.600000 translate 0.035278 -0.035278 scale
start_ol
1600 1455 moveto
1447 1216 lineto
1428 1219 1428 1241 conicto
1428 1264 1420 1274 conicto
1352 1347 1227 1409 conicto
1102 1472 943 1472 conicto
871 1472 805 1456 conicto
739 1441 688 1414 conicto
637 1387 606 1344 conicto
576 1302 576 1247 conicto
576 1207 598 1174 conicto
620 1142 667 1111 conicto
715 1081 801 1050 conicto
887 1019 1026 982 conicto
1340 896 1470 778 conicto
1600 660 1600 487 conicto
1600 375 1552 273 conicto
1504 172 1412 97 conicto
1321 22 1192 -21 conicto
1063 -64 902 -64 conicto
479 -64 192 192 conicto
342 448 lineto
353 439 357 419 conicto
361 399 383 371 conicto
406 344 465 309 conicto
525 274 649 232 conicto
705 210 776 201 conicto
847 192 918 192 conicto
993 192 1069 209 conicto
1146 227 1207 260 conicto
1269 293 1306 339 conicto
1344 386 1344 445 conicto
1344 535 1256 597 conicto
1168 660 934 726 conicto
773 775 722 794 conicto
591 847 532 887 conicto
474 927 426 982 conicto
379 1037 349 1107 conicto
320 1178 320 1261 conicto
320 1352 368 1435 conicto
416 1519 503 1583 conicto
590 1648 710 1688 conicto
831 1728 971 1728 conicto
1360 1728 1600 1455 conicto
end_ol grestore 
gsave 20.071504 6.600000 translate 0.035278 -0.035278 scale
start_ol
end_ol grestore 
gsave 20.311274 6.600000 translate 0.035278 -0.035278 scale
start_ol
653 2109 moveto
931 2157 lineto
931 2124 922 2098 conicto
913 2073 909 2058 conicto
865 1664 lineto
1408 1664 lineto
1408 1408 lineto
865 1408 lineto
832 1090 832 811 conicto
832 639 839 521 conicto
847 403 879 335 conicto
911 267 971 229 conicto
1032 192 1133 192 conicto
1306 192 1517 320 conicto
1600 117 lineto
1345 -64 1075 -64 conicto
809 -64 687 93 conicto
565 251 576 605 conicto
576 735 583 937 conicto
591 1140 613 1408 conicto
192 1408 lineto
192 1664 lineto
624 1664 lineto
653 2109 lineto
end_ol grestore 
gsave 20.551045 6.600000 translate 0.035278 -0.035278 scale
start_ol
911 1728 moveto
1064 1728 1201 1666 conicto
1339 1605 1441 1489 conicto
1543 1373 1603 1206 conicto
1664 1040 1664 834 conicto
1664 624 1605 459 conicto
1547 295 1444 177 conicto
1342 59 1203 -2 conicto
1064 -64 907 -64 conicto
746 -64 605 3 conicto
464 71 358 188 conicto
252 306 190 471 conicto
128 636 128 826 conicto
128 1017 192 1185 conicto
256 1354 364 1472 conicto
472 1590 614 1659 conicto
757 1728 911 1728 conicto
1408 825 moveto
1408 979 1364 1099 conicto
1321 1220 1249 1303 conicto
1178 1386 1086 1429 conicto
994 1472 892 1472 conicto
791 1472 698 1429 conicto
606 1386 536 1303 conicto
467 1220 425 1103 conicto
384 987 384 839 conicto
384 695 425 576 conicto
467 458 536 371 conicto
606 285 700 238 conicto
794 192 900 192 conicto
1005 192 1097 233 conicto
1190 275 1259 355 conicto
1329 436 1368 555 conicto
1408 674 1408 825 conicto
end_ol grestore 
gsave 20.790815 6.600000 translate 0.035278 -0.035278 scale
start_ol
end_ol grestore 
gsave 21.030585 6.600000 translate 0.035278 -0.035278 scale
start_ol
320 1505 moveto
547 1728 927 1728 conicto
1239 1728 1419 1570 conicto
1600 1413 1600 1047 conicto
1600 0 lineto
1348 0 lineto
1348 159 lineto
1083 -64 752 -64 conicto
621 -64 517 -24 conicto
414 16 341 82 conicto
268 148 230 232 conicto
192 316 192 400 conicto
192 653 408 799 conicto
624 945 1031 960 conicto
1344 960 lineto
1344 1023 lineto
1344 1273 1238 1372 conicto
1132 1472 908 1472 conicto
633 1472 450 1344 conicto
320 1505 lineto
1355 701 moveto
1293 701 lineto
1242 701 1196 702 conicto
1150 704 1106 704 conicto
905 704 777 681 conicto
649 659 576 620 conicto
503 581 475 531 conicto
448 482 448 426 conicto
448 330 550 261 conicto
653 192 803 192 conicto
912 192 1000 220 conicto
1088 249 1154 289 conicto
1220 330 1260 373 conicto
1300 417 1318 449 conicto
1355 509 1355 611 conicto
1355 701 lineto
end_ol grestore 
gsave 11.380000 7.661250 translate 0.035278 -0.035278 scale
start_ol
1428 1996 moveto
1535 1851 1599 1617 conicto
1664 1384 1664 1094 conicto
1664 801 1599 584 conicto
1535 367 1430 222 conicto
1325 77 1192 6 conicto
1060 -64 924 -64 conicto
784 -64 652 21 conicto
520 107 416 261 conicto
313 415 252 632 conicto
192 849 192 1113 conicto
192 1376 252 1595 conicto
313 1814 416 1972 conicto
520 2130 652 2217 conicto
784 2304 924 2304 conicto
1211 2304 1428 1996 conicto
1280 1755 moveto
1209 1900 1116 1974 conicto
1024 2048 928 2048 conicto
839 2048 752 1983 conicto
665 1918 597 1802 conicto
530 1686 489 1519 conicto
448 1353 448 1154 conicto
448 930 498 727 conicto
1280 1755 lineto
1362 1513 moveto
580 500 lineto
665 337 759 264 conicto
854 192 946 192 conicto
1042 192 1125 251 conicto
1209 311 1271 423 conicto
1333 536 1370 697 conicto
1408 858 1408 1061 conicto
1408 1187 1397 1299 conicto
1387 1412 1362 1513 conicto
end_ol grestore 
gsave 12.380000 7.661250 translate 0.035278 -0.035278 scale
start_ol
1088 2304 moveto
1088 0 lineto
832 0 lineto
832 1990 lineto
378 1856 lineto
320 1998 lineto
910 2304 lineto
1088 2304 lineto
end_ol grestore 
gsave 13.380000 7.661250 translate 0.035278 -0.035278 scale
start_ol
256 1937 moveto
358 2112 534 2208 conicto
710 2304 915 2304 conicto
1055 2304 1180 2254 conicto
1305 2205 1399 2117 conicto
1494 2029 1547 1911 conicto
1600 1794 1600 1662 conicto
1600 1556 1568 1460 conicto
1536 1365 1483 1278 conicto
1431 1192 1361 1113 conicto
1292 1035 1216 968 conicto
991 763 lineto
942 719 882 662 conicto
822 605 763 539 conicto
705 474 648 401 conicto
592 329 551 256 conicto
1512 256 lineto
1530 256 1550 272 conicto
1571 288 1589 288 conicto
1600 288 lineto
1600 0 lineto
256 0 lineto
256 185 lineto
394 445 555 634 conicto
716 824 865 952 conicto
1045 1109 lineto
1138 1191 1196 1260 conicto
1254 1330 1288 1394 conicto
1322 1459 1333 1518 conicto
1344 1577 1344 1637 conicto
1344 1716 1310 1789 conicto
1276 1862 1213 1921 conicto
1150 1980 1072 2014 conicto
994 2048 910 2048 conicto
811 2048 733 2024 conicto
655 2000 596 1966 conicto
538 1933 503 1896 conicto
469 1859 465 1830 conicto
458 1802 450 1792 conicto
256 1937 lineto
end_ol grestore 
gsave 14.380000 7.661250 translate 0.035278 -0.035278 scale
start_ol
1472 1703 moveto
1472 1531 1380 1390 conicto
1288 1250 1137 1189 conicto
1316 1127 1426 966 conicto
1536 805 1536 601 conicto
1536 466 1487 345 conicto
1439 225 1347 133 conicto
1256 42 1122 -11 conicto
989 -64 820 -64 conicto
490 -64 256 207 conicto
449 448 lineto
463 433 470 398 conicto
477 364 495 342 conicto
544 294 lineto
572 265 658 228 conicto
745 192 836 192 conicto
931 192 1012 226 conicto
1093 260 1153 320 conicto
1213 380 1246 460 conicto
1280 541 1280 630 conicto
1280 815 1134 923 conicto
989 1031 751 1031 conicto
723 1031 696 1029 conicto
669 1027 640 1024 conicto
640 1280 lineto
802 1280 910 1314 conicto
1019 1349 1087 1407 conicto
1156 1466 1186 1544 conicto
1216 1622 1216 1713 conicto
1216 1779 1188 1839 conicto
1160 1899 1111 1944 conicto
1062 1990 991 2019 conicto
921 2048 837 2048 conicto
613 2048 462 1920 conicto
320 2070 lineto
539 2304 855 2304 conicto
984 2304 1097 2256 conicto
1210 2209 1292 2125 conicto
1375 2041 1423 1933 conicto
1472 1825 1472 1703 conicto
end_ol grestore 
gsave 18.520000 7.661250 translate 0.035278 -0.035278 scale
start_ol
813 -64 moveto
527 -64 320 135 conicto
499 320 lineto
517 312 529 287 conicto
541 263 555 255 conicto
657 192 805 192 conicto
1069 192 1199 400 conicto
1330 609 1344 1077 conicto
1264 964 1141 898 conicto
1018 832 876 832 conicto
749 832 636 885 conicto
524 938 439 1033 conicto
354 1128 305 1261 conicto
256 1395 256 1555 conicto
256 1716 307 1853 conicto
358 1990 447 2090 conicto
536 2191 654 2247 conicto
773 2304 908 2304 conicto
1239 2304 1419 2013 conicto
1600 1722 1600 1081 conicto
1600 788 1537 573 conicto
1475 358 1367 219 conicto
1260 81 1117 10 conicto
974 -60 813 -64 conicto
1329 1349 moveto
1333 1376 1333 1401 conicto
1333 1427 1333 1455 conicto
1333 1589 1299 1698 conicto
1265 1808 1207 1885 conicto
1150 1962 1075 2005 conicto
1000 2048 921 2048 conicto
738 2048 625 1917 conicto
512 1787 512 1561 conicto
512 1451 544 1364 conicto
577 1277 629 1215 conicto
681 1153 747 1120 conicto
813 1088 885 1088 conicto
1028 1088 1141 1158 conicto
1254 1229 1329 1349 conicto
end_ol grestore 
gsave 18.759770 7.661250 translate 0.035278 -0.035278 scale
start_ol
813 -64 moveto
527 -64 320 135 conicto
499 320 lineto
517 312 529 287 conicto
541 263 555 255 conicto
657 192 805 192 conicto
1069 192 1199 400 conicto
1330 609 1344 1077 conicto
1264 964 1141 898 conicto
1018 832 876 832 conicto
749 832 636 885 conicto
524 938 439 1033 conicto
354 1128 305 1261 conicto
256 1395 256 1555 conicto
256 1716 307 1853 conicto
358 1990 447 2090 conicto
536 2191 654 2247 conicto
773 2304 908 2304 conicto
1239 2304 1419 2013 conicto
1600 1722 1600 1081 conicto
1600 788 1537 573 conicto
1475 358 1367 219 conicto
1260 81 1117 10 conicto
974 -60 813 -64 conicto
1329 1349 moveto
1333 1376 1333 1401 conicto
1333 1427 1333 1455 conicto
1333 1589 1299 1698 conicto
1265 1808 1207 1885 conicto
1150 1962 1075 2005 conicto
1000 2048 921 2048 conicto
738 2048 625 1917 conicto
512 1787 512 1561 conicto
512 1451 544 1364 conicto
577 1277 629 1215 conicto
681 1153 747 1120 conicto
813 1088 885 1088 conicto
1028 1088 1141 1158 conicto
1254 1229 1329 1349 conicto
end_ol grestore 
gsave 18.999541 7.661250 translate 0.035278 -0.035278 scale
start_ol
813 -64 moveto
527 -64 320 135 conicto
499 320 lineto
517 312 529 287 conicto
541 263 555 255 conicto
657 192 805 192 conicto
1069 192 1199 400 conicto
1330 609 1344 1077 conicto
1264 964 1141 898 conicto
1018 832 876 832 conicto
749 832 636 885 conicto
524 938 439 1033 conicto
354 1128 305 1261 conicto
256 1395 256 1555 conicto
256 1716 307 1853 conicto
358 1990 447 2090 conicto
536 2191 654 2247 conicto
773 2304 908 2304 conicto
1239 2304 1419 2013 conicto
1600 1722 1600 1081 conicto
1600 788 1537 573 conicto
1475 358 1367 219 conicto
1260 81 1117 10 conicto
974 -60 813 -64 conicto
1329 1349 moveto
1333 1376 1333 1401 conicto
1333 1427 1333 1455 conicto
1333 1589 1299 1698 conicto
1265 1808 1207 1885 conicto
1150 1962 1075 2005 conicto
1000 2048 921 2048 conicto
738 2048 625 1917 conicto
512 1787 512 1561 conicto
512 1451 544 1364 conicto
577 1277 629 1215 conicto
681 1153 747 1120 conicto
813 1088 885 1088 conicto
1028 1088 1141 1158 conicto
1254 1229 1329 1349 conicto
end_ol grestore 
gsave 19.239311 7.661250 translate 0.035278 -0.035278 scale
start_ol
1536 1738 moveto
1536 1566 1436 1411 conicto
1337 1256 1171 1164 conicto
1364 1074 1482 908 conicto
1600 742 1600 548 conicto
1600 419 1544 306 conicto
1489 194 1395 111 conicto
1301 29 1171 -17 conicto
1042 -64 894 -64 conicto
746 -64 617 -17 conicto
488 29 393 109 conicto
299 190 245 298 conicto
192 407 192 532 conicto
192 725 322 893 conicto
452 1061 670 1154 conicto
512 1238 416 1389 conicto
320 1541 320 1714 conicto
320 1836 368 1943 conicto
416 2051 500 2131 conicto
585 2212 695 2258 conicto
806 2304 935 2304 conicto
1064 2304 1174 2260 conicto
1285 2216 1364 2137 conicto
1444 2059 1490 1956 conicto
1536 1853 1536 1738 conicto
843 1024 moveto
674 961 561 836 conicto
448 711 448 561 conicto
448 485 484 418 conicto
520 352 582 302 conicto
644 252 725 222 conicto
806 192 900 192 conicto
994 192 1075 220 conicto
1156 249 1216 297 conicto
1276 345 1310 410 conicto
1344 475 1344 551 conicto
1344 705 1208 833 conicto
1073 961 843 1024 conicto
637 1535 moveto
681 1463 751 1411 conicto
821 1359 912 1312 conicto
973 1280 lineto
1107 1352 1193 1474 conicto
1280 1596 1280 1721 conicto
1280 1786 1253 1843 conicto
1226 1901 1177 1947 conicto
1128 1994 1063 2021 conicto
998 2048 923 2048 conicto
847 2048 783 2021 conicto
720 1994 673 1951 conicto
627 1908 601 1850 conicto
576 1793 576 1732 conicto
576 1625 637 1535 conicto
end_ol grestore 
gsave 20.520000 7.661250 translate 0.035278 -0.035278 scale
start_ol
813 -64 moveto
527 -64 320 135 conicto
499 320 lineto
517 312 529 287 conicto
541 263 555 255 conicto
657 192 805 192 conicto
1069 192 1199 400 conicto
1330 609 1344 1077 conicto
1264 964 1141 898 conicto
1018 832 876 832 conicto
749 832 636 885 conicto
524 938 439 1033 conicto
354 1128 305 1261 conicto
256 1395 256 1555 conicto
256 1716 307 1853 conicto
358 1990 447 2090 conicto
536 2191 654 2247 conicto
773 2304 908 2304 conicto
1239 2304 1419 2013 conicto
1600 1722 1600 1081 conicto
1600 788 1537 573 conicto
1475 358 1367 219 conicto
1260 81 1117 10 conicto
974 -60 813 -64 conicto
1329 1349 moveto
1333 1376 1333 1401 conicto
1333 1427 1333 1455 conicto
1333 1589 1299 1698 conicto
1265 1808 1207 1885 conicto
1150 1962 1075 2005 conicto
1000 2048 921 2048 conicto
738 2048 625 1917 conicto
512 1787 512 1561 conicto
512 1451 544 1364 conicto
577 1277 629 1215 conicto
681 1153 747 1120 conicto
813 1088 885 1088 conicto
1028 1088 1141 1158 conicto
1254 1229 1329 1349 conicto
end_ol grestore 
gsave 20.759770 7.661250 translate 0.035278 -0.035278 scale
start_ol
813 -64 moveto
527 -64 320 135 conicto
499 320 lineto
517 312 529 287 conicto
541 263 555 255 conicto
657 192 805 192 conicto
1069 192 1199 400 conicto
1330 609 1344 1077 conicto
1264 964 1141 898 conicto
1018 832 876 832 conicto
749 832 636 885 conicto
524 938 439 1033 conicto
354 1128 305 1261 conicto
256 1395 256 1555 conicto
256 1716 307 1853 conicto
358 1990 447 2090 conicto
536 2191 654 2247 conicto
773 2304 908 2304 conicto
1239 2304 1419 2013 conicto
1600 1722 1600 1081 conicto
1600 788 1537 573 conicto
1475 358 1367 219 conicto
1260 81 1117 10 conicto
974 -60 813 -64 conicto
1329 1349 moveto
1333 1376 1333 1401 conicto
1333 1427 1333 1455 conicto
1333 1589 1299 1698 conicto
1265 1808 1207 1885 conicto
1150 1962 1075 2005 conicto
1000 2048 921 2048 conicto
738 2048 625 1917 conicto
512 1787 512 1561 conicto
512 1451 544 1364 conicto
577 1277 629 1215 conicto
681 1153 747 1120 conicto
813 1088 885 1088 conicto
1028 1088 1141 1158 conicto
1254 1229 1329 1349 conicto
end_ol grestore 
gsave 20.999541 7.661250 translate 0.035278 -0.035278 scale
start_ol
813 -64 moveto
527 -64 320 135 conicto
499 320 lineto
517 312 529 287 conicto
541 263 555 255 conicto
657 192 805 192 conicto
1069 192 1199 400 conicto
1330 609 1344 1077 conicto
1264 964 1141 898 conicto
1018 832 876 832 conicto
749 832 636 885 conicto
524 938 439 1033 conicto
354 1128 305 1261 conicto
256 1395 256 1555 conicto
256 1716 307 1853 conicto
358 1990 447 2090 conicto
536 2191 654 2247 conicto
773 2304 908 2304 conicto
1239 2304 1419 2013 conicto
1600 1722 1600 1081 conicto
1600 788 1537 573 conicto
1475 358 1367 219 conicto
1260 81 1117 10 conicto
974 -60 813 -64 conicto
1329 1349 moveto
1333 1376 1333 1401 conicto
1333 1427 1333 1455 conicto
1333 1589 1299 1698 conicto
1265 1808 1207 1885 conicto
1150 1962 1075 2005 conicto
1000 2048 921 2048 conicto
738 2048 625 1917 conicto
512 1787 512 1561 conicto
512 1451 544 1364 conicto
577 1277 629 1215 conicto
681 1153 747 1120 conicto
813 1088 885 1088 conicto
1028 1088 1141 1158 conicto
1254 1229 1329 1349 conicto
end_ol grestore 
gsave 21.239311 7.661250 translate 0.035278 -0.035278 scale
start_ol
813 -64 moveto
527 -64 320 135 conicto
499 320 lineto
517 312 529 287 conicto
541 263 555 255 conicto
657 192 805 192 conicto
1069 192 1199 400 conicto
1330 609 1344 1077 conicto
1264 964 1141 898 conicto
1018 832 876 832 conicto
749 832 636 885 conicto
524 938 439 1033 conicto
354 1128 305 1261 conicto
256 1395 256 1555 conicto
256 1716 307 1853 conicto
358 1990 447 2090 conicto
536 2191 654 2247 conicto
773 2304 908 2304 conicto
1239 2304 1419 2013 conicto
1600 1722 1600 1081 conicto
1600 788 1537 573 conicto
1475 358 1367 219 conicto
1260 81 1117 10 conicto
974 -60 813 -64 conicto
1329 1349 moveto
1333 1376 1333 1401 conicto
1333 1427 1333 1455 conicto
1333 1589 1299 1698 conicto
1265 1808 1207 1885 conicto
1150 1962 1075 2005 conicto
1000 2048 921 2048 conicto
738 2048 625 1917 conicto
512 1787 512 1561 conicto
512 1451 544 1364 conicto
577 1277 629 1215 conicto
681 1153 747 1120 conicto
813 1088 885 1088 conicto
1028 1088 1141 1158 conicto
1254 1229 1329 1349 conicto
end_ol grestore 
showpage
